res/logs/swl/tek0000ALL.csv

Model,DPO3032
Firmware Version,2.16

Point Format,Y,
Horizontal Units,S,
Horizontal Scale,0.4,
Sample Interval,0.004,
Record Length,1000,
Gating,0.0% to 100.0%,0.0% to 100.0%
Probe Attenuation,1,1
Vertical Units,V,V
Vertical Offset,-0.02,2.578
Vertical Scale,2,0.5
Label,IN,OUT
TIME,CH1,CH2
-2.000e+00,0.06,1.408
-1.996e+00,-0.02,1.388
-1.992e+00,-0.1,1.388
-1.988e+00,-0.02,1.388
-1.984e+00,-0.02,1.428
-1.980e+00,-0.02,1.348
-1.976e+00,-0.02,1.368
-1.972e+00,-0.02,1.388
-1.968e+00,-0.02,1.368
-1.964e+00,-0.1,1.408
-1.960e+00,-0.1,1.428
-1.956e+00,-0.02,1.428
-1.952e+00,-0.1,1.388
-1.948e+00,-0.1,1.408
-1.944e+00,-0.02,1.428
-1.940e+00,-0.02,1.408
-1.936e+00,-0.02,1.348
-1.932e+00,-0.1,1.368
-1.928e+00,-0.02,1.368
-1.924e+00,-0.02,1.388
-1.920e+00,-0.02,1.388
-1.916e+00,-0.1,1.368
-1.912e+00,-0.02,1.368
-1.908e+00,-0.02,1.368
-1.904e+00,-0.02,1.348
-1.900e+00,-0.1,1.368
-1.896e+00,-0.1,1.368
-1.892e+00,-0.02,1.348
-1.888e+00,0.06,1.388
-1.884e+00,-0.18,1.368
-1.880e+00,-0.02,1.388
-1.876e+00,-0.02,1.388
-1.872e+00,0.06,1.388
-1.868e+00,-0.02,1.368
-1.864e+00,-0.02,1.388
-1.860e+00,-0.02,1.368
-1.856e+00,-0.02,1.388
-1.852e+00,-0.02,1.368
-1.848e+00,-0.1,1.388
-1.844e+00,-0.02,1.388
-1.840e+00,-0.02,1.388
-1.836e+00,-0.18,1.388
-1.832e+00,-0.02,1.408
-1.828e+00,-0.02,1.428
-1.824e+00,-0.18,1.448
-1.820e+00,-0.02,1.408
-1.816e+00,-0.1,1.408
-1.812e+00,-0.02,1.428
-1.808e+00,0.06,1.408
-1.804e+00,-0.02,1.488
-1.800e+00,0.06,1.468
-1.796e+00,-0.02,1.508
-1.792e+00,-0.1,1.548
-1.788e+00,-0.1,1.588
-1.784e+00,-0.02,1.648
-1.780e+00,0.06,1.628
-1.776e+00,-0.02,1.668
-1.772e+00,0.06,1.688
-1.768e+00,-0.02,1.768
-1.764e+00,-0.1,1.808
-1.760e+00,-0.02,1.868
-1.756e+00,-0.02,1.928
-1.752e+00,-0.02,1.928
-1.748e+00,-0.02,1.988
-1.744e+00,-0.02,2.008
-1.740e+00,-0.02,2.088
-1.736e+00,-0.02,2.128
-1.732e+00,-0.02,2.168
-1.728e+00,0.06,2.208
-1.724e+00,-0.02,2.268
-1.720e+00,-0.02,2.328
-1.716e+00,-0.02,2.368
-1.712e+00,-0.1,2.408
-1.708e+00,-0.1,2.468
-1.704e+00,-0.18,2.468
-1.700e+00,-0.02,2.528
-1.696e+00,-0.1,2.588
-1.692e+00,-0.1,2.608
-1.688e+00,-0.1,2.628
-1.684e+00,-0.02,2.688
-1.680e+00,0.06,2.708
-1.676e+00,-0.1,2.748
-1.672e+00,-0.02,2.748
-1.668e+00,-0.02,2.808
-1.664e+00,-0.02,2.828
-1.660e+00,-0.02,2.848
-1.656e+00,-0.1,2.868
-1.652e+00,-0.1,2.868
-1.648e+00,-0.1,2.868
-1.644e+00,-0.02,2.928
-1.640e+00,-0.02,2.948
-1.636e+00,0.06,2.968
-1.632e+00,-0.02,2.968
-1.628e+00,-0.02,2.968
-1.624e+00,-0.1,2.968
-1.620e+00,0.06,2.988
-1.616e+00,-0.18,3.048
-1.612e+00,-0.1,2.988
-1.608e+00,-0.02,2.988
-1.604e+00,-0.1,3.008
-1.600e+00,0.06,2.968
-1.596e+00,-0.1,2.948
-1.592e+00,-0.1,2.908
-1.588e+00,-0.02,2.888
-1.584e+00,-0.02,2.908
-1.580e+00,-0.1,2.868
-1.576e+00,-0.1,2.828
-1.572e+00,-0.02,2.808
-1.568e+00,-0.02,2.808
-1.564e+00,-0.02,2.708
-1.560e+00,-0.1,2.768
-1.556e+00,-0.02,2.708
-1.552e+00,-0.02,2.628
-1.548e+00,-0.02,2.628
-1.544e+00,-0.18,2.588
-1.540e+00,0.06,2.568
-1.536e+00,-0.1,2.548
-1.532e+00,-0.02,2.488
-1.528e+00,-0.1,2.488
-1.524e+00,-0.02,2.448
-1.520e+00,-0.02,2.428
-1.516e+00,0.06,2.388
-1.512e+00,-0.02,2.328
-1.508e+00,-0.02,2.308
-1.504e+00,-0.02,2.268
-1.500e+00,-0.02,2.208
-1.496e+00,-0.02,2.188
-1.492e+00,-0.02,2.148
-1.488e+00,-0.02,2.108
-1.484e+00,0.06,2.088
-1.480e+00,-0.1,2.088
-1.476e+00,-0.02,2.068
-1.472e+00,-0.02,2.028
-1.468e+00,-0.1,2.008
-1.464e+00,-0.02,1.928
-1.460e+00,-0.02,1.968
-1.456e+00,-0.02,1.888
-1.452e+00,-0.02,1.928
-1.448e+00,-0.02,1.848
-1.444e+00,-0.1,1.868
-1.440e+00,0.06,1.848
-1.436e+00,0.06,1.828
-1.432e+00,-0.02,1.848
-1.428e+00,-0.02,1.848
-1.424e+00,-0.02,1.808
-1.420e+00,-0.02,1.828
-1.416e+00,-0.02,1.828
-1.412e+00,-0.02,1.788
-1.408e+00,0.06,1.848
-1.404e+00,-0.02,1.788
-1.400e+00,-0.02,1.848
-1.396e+00,0.06,1.788
-1.392e+00,-0.02,1.828
-1.388e+00,-0.02,1.808
-1.384e+00,0.06,1.848
-1.380e+00,-0.1,1.848
-1.376e+00,-0.1,1.828
-1.372e+00,-0.02,1.868
-1.368e+00,-0.02,1.908
-1.364e+00,-0.02,1.948
-1.360e+00,-0.02,1.928
-1.356e+00,-0.02,1.948
-1.352e+00,-0.02,2.028
-1.348e+00,0.06,1.988
-1.344e+00,-0.02,2.048
-1.340e+00,-0.1,2.048
-1.336e+00,-0.1,2.108
-1.332e+00,-0.02,2.068
-1.328e+00,-0.02,2.108
-1.324e+00,-0.1,2.128
-1.320e+00,-0.1,2.188
-1.316e+00,-0.1,2.228
-1.312e+00,-0.1,2.228
-1.308e+00,-0.1,2.268
-1.304e+00,-0.02,2.288
-1.300e+00,-0.1,2.308
-1.296e+00,-0.1,2.308
-1.292e+00,-0.1,2.348
-1.288e+00,-0.1,2.368
-1.284e+00,-0.02,2.448
-1.280e+00,-0.1,2.428
-1.276e+00,-0.02,2.468
-1.272e+00,-0.02,2.488
-1.268e+00,-0.02,2.548
-1.264e+00,-0.02,2.548
-1.260e+00,-0.02,2.548
-1.256e+00,-0.02,2.568
-1.252e+00,0.06,2.568
-1.248e+00,-0.02,2.608
-1.244e+00,-0.18,2.608
-1.240e+00,-0.02,2.608
-1.236e+00,-0.1,2.628
-1.232e+00,0.06,2.628
-1.228e+00,-0.02,2.648
-1.224e+00,-0.02,2.728
-1.220e+00,-0.02,2.688
-1.216e+00,-0.02,2.688
-1.212e+00,-0.02,2.708
-1.208e+00,0.06,2.708
-1.204e+00,-0.02,2.708
-1.200e+00,-0.1,2.728
-1.196e+00,-0.02,2.708
-1.192e+00,-0.02,2.688
-1.188e+00,-0.02,2.668
-1.184e+00,-0.02,2.688
-1.180e+00,-0.02,2.648
-1.176e+00,-0.1,2.668
-1.172e+00,-0.02,2.648
-1.168e+00,-0.02,2.628
-1.164e+00,-0.02,2.608
-1.160e+00,-0.02,2.648
-1.156e+00,0.06,2.608
-1.152e+00,-0.02,2.608
-1.148e+00,-0.02,2.588
-1.144e+00,-0.18,2.568
-1.140e+00,0.06,2.548
-1.136e+00,-0.1,2.548
-1.132e+00,-0.1,2.548
-1.128e+00,-0.02,2.508
-1.124e+00,-0.1,2.508
-1.120e+00,-0.02,2.508
-1.116e+00,-0.02,2.428
-1.112e+00,-0.1,2.428
-1.108e+00,-0.02,2.388
-1.104e+00,-0.02,2.368
-1.100e+00,-0.02,2.368
-1.096e+00,-0.02,2.348
-1.092e+00,-0.02,2.288
-1.088e+00,-0.02,2.308
-1.084e+00,-0.18,2.268
-1.080e+00,-0.02,2.288
-1.076e+00,0.06,2.228
-1.072e+00,-0.02,2.228
-1.068e+00,-0.02,2.228
-1.064e+00,0.06,2.188
-1.060e+00,0.06,2.208
-1.056e+00,-0.02,2.148
-1.052e+00,-0.02,2.148
-1.048e+00,-0.02,2.148
-1.044e+00,-0.1,2.128
-1.040e+00,-0.02,2.088
-1.036e+00,-0.02,2.108
-1.032e+00,-0.02,2.048
-1.028e+00,-0.02,2.068
-1.024e+00,0.06,2.068
-1.020e+00,-0.02,2.048
-1.016e+00,-0.02,2.048
-1.012e+00,-0.02,2.048
-1.008e+00,-0.02,2.068
-1.004e+00,-0.02,1.988
-1.000e-00,-0.02,2.028
-9.960e-01,-0.02,1.988
-9.920e-01,0.06,2.008
-9.880e-01,-0.02,2.048
-9.840e-01,-0.02,2.028
-9.800e-01,0.06,2.028
-9.760e-01,-0.02,2.028
-9.720e-01,-0.1,2.068
-9.680e-01,-0.02,2.028
-9.640e-01,-0.02,2.008
-9.600e-01,-0.02,2.008
-9.560e-01,-0.02,2.008
-9.520e-01,-0.02,2.068
-9.480e-01,-0.02,2.108
-9.440e-01,-0.02,2.068
-9.400e-01,-0.02,2.088
-9.360e-01,-0.02,2.148
-9.320e-01,-0.02,2.128
-9.280e-01,-0.02,2.148
-9.240e-01,0.06,2.148
-9.200e-01,-0.02,2.168
-9.160e-01,-0.02,2.228
-9.120e-01,-0.02,2.188
-9.080e-01,-0.1,2.248
-9.040e-01,-0.02,2.228
-9.000e-01,-0.02,2.268
-8.960e-01,-0.02,2.248
-8.920e-01,-0.02,2.308
-8.880e-01,-0.02,2.308
-8.840e-01,-0.02,2.308
-8.800e-01,-0.02,2.328
-8.760e-01,-0.02,2.348
-8.720e-01,-0.1,2.328
-8.680e-01,-0.02,2.328
-8.640e-01,-0.02,2.388
-8.600e-01,-0.02,2.348
-8.560e-01,0.06,2.368
-8.520e-01,0.06,2.408
-8.480e-01,-0.02,2.428
-8.440e-01,-0.02,2.428
-8.400e-01,-0.02,2.468
-8.360e-01,-0.02,2.468
-8.320e-01,-0.02,2.488
-8.280e-01,-0.02,2.468
-8.240e-01,-0.02,2.488
-8.200e-01,-0.1,2.508
-8.160e-01,-0.02,2.508
-8.120e-01,-0.02,2.548
-8.080e-01,-0.02,2.528
-8.040e-01,-0.02,2.528
-8.000e-01,-0.02,2.548
-7.960e-01,0.06,2.488
-7.920e-01,-0.1,2.528
-7.880e-01,-0.1,2.508
-7.840e-01,-0.02,2.508
-7.800e-01,-0.02,2.548
-7.760e-01,-0.18,2.508
-7.720e-01,-0.02,2.568
-7.680e-01,-0.02,2.508
-7.640e-01,-0.02,2.548
-7.600e-01,-0.02,2.528
-7.560e-01,-0.1,2.528
-7.520e-01,-0.02,2.548
-7.480e-01,-0.02,2.528
-7.440e-01,-0.02,2.548
-7.400e-01,-0.02,2.488
-7.360e-01,-0.02,2.488
-7.320e-01,-0.02,2.468
-7.280e-01,0.06,2.488
-7.240e-01,-0.1,2.488
-7.200e-01,0.14,2.508
-7.160e-01,0.06,2.488
-7.120e-01,-0.02,2.428
-7.080e-01,-0.02,2.428
-7.040e-01,-0.1,2.448
-7.000e-01,-0.02,2.448
-6.960e-01,-0.18,2.368
-6.920e-01,-0.02,2.368
-6.880e-01,-0.02,2.368
-6.840e-01,-0.02,2.388
-6.800e-01,-0.02,2.368
-6.760e-01,-0.02,2.308
-6.720e-01,-0.1,2.328
-6.680e-01,-0.02,2.288
-6.640e-01,-0.02,2.328
-6.600e-01,-0.02,2.308
-6.560e-01,-0.1,2.288
-6.520e-01,-0.1,2.288
-6.480e-01,-0.02,2.248
-6.440e-01,-0.1,2.268
-6.400e-01,-0.02,2.268
-6.360e-01,-0.02,2.248
-6.320e-01,-0.02,2.208
-6.280e-01,0.06,2.248
-6.240e-01,-0.1,2.208
-6.200e-01,-0.02,2.188
-6.160e-01,-0.02,2.168
-6.120e-01,-0.02,2.168
-6.080e-01,-0.02,2.228
-6.040e-01,-0.02,2.188
-6.000e-01,-0.02,2.208
-5.960e-01,-0.1,2.168
-5.920e-01,-0.02,2.168
-5.880e-01,0.14,2.188
-5.840e-01,-0.02,2.148
-5.800e-01,-0.02,2.148
-5.760e-01,-0.02,2.108
-5.720e-01,-0.02,2.168
-5.680e-01,-0.02,2.128
-5.640e-01,-0.02,2.128
-5.600e-01,-0.02,2.128
-5.560e-01,0.14,2.128
-5.520e-01,0.06,2.168
-5.480e-01,-0.02,2.168
-5.440e-01,-0.02,2.148
-5.400e-01,-0.02,2.148
-5.360e-01,-0.1,2.188
-5.320e-01,-0.02,2.168
-5.280e-01,-0.02,2.188
-5.240e-01,0.06,2.188
-5.200e-01,-0.02,2.188
-5.160e-01,-0.02,2.188
-5.120e-01,0.06,2.188
-5.080e-01,-0.18,2.208
-5.040e-01,-0.02,2.208
-5.000e-01,-0.02,2.208
-4.960e-01,-0.02,2.248
-4.920e-01,-0.02,2.268
-4.880e-01,-0.02,2.288
-4.840e-01,-0.02,2.268
-4.800e-01,-0.02,2.288
-4.760e-01,-0.18,2.288
-4.720e-01,0.06,2.288
-4.680e-01,-0.02,2.308
-4.640e-01,-0.02,2.288
-4.600e-01,-0.02,2.328
-4.560e-01,-0.02,2.328
-4.520e-01,-0.1,2.328
-4.480e-01,-0.02,2.348
-4.440e-01,-0.02,2.308
-4.400e-01,-0.02,2.368
-4.360e-01,-0.1,2.328
-4.320e-01,0.06,2.388
-4.280e-01,-0.02,2.368
-4.240e-01,-0.18,2.348
-4.200e-01,-0.02,2.408
-4.160e-01,-0.02,2.408
-4.120e-01,-0.02,2.428
-4.080e-01,-0.02,2.428
-4.040e-01,-0.02,2.408
-4.000e-01,-0.02,2.428
-3.960e-01,0.06,2.448
-3.920e-01,-0.02,2.448
-3.880e-01,0.06,2.428
-3.840e-01,-0.02,2.408
-3.800e-01,-0.02,2.448
-3.760e-01,-0.1,2.408
-3.720e-01,-0.02,2.448
-3.680e-01,-0.02,2.448
-3.640e-01,-0.1,2.448
-3.600e-01,0.06,2.448
-3.560e-01,-0.02,2.468
-3.520e-01,-0.02,2.448
-3.480e-01,-0.02,2.448
-3.440e-01,-0.02,2.448
-3.400e-01,-0.1,2.428
-3.360e-01,-0.1,2.448
-3.320e-01,-0.02,2.448
-3.280e-01,-0.02,2.448
-3.240e-01,-0.02,2.428
-3.200e-01,-0.02,2.428
-3.160e-01,-0.02,2.428
-3.120e-01,-0.02,2.408
-3.080e-01,-0.02,2.408
-3.040e-01,-0.02,2.408
-3.000e-01,-0.02,2.328
-2.960e-01,-0.1,2.388
-2.920e-01,-0.02,2.408
-2.880e-01,0.06,2.348
-2.840e-01,-0.02,2.368
-2.800e-01,-0.02,2.368
-2.760e-01,-0.02,2.368
-2.720e-01,-0.02,2.328
-2.680e-01,-0.1,2.328
-2.640e-01,-0.1,2.328
-2.600e-01,-0.02,2.308
-2.560e-01,-0.1,2.348
-2.520e-01,-0.02,2.308
-2.480e-01,-0.02,2.308
-2.440e-01,-0.1,2.308
-2.400e-01,-0.02,2.308
-2.360e-01,0.06,2.308
-2.320e-01,-0.02,2.308
-2.280e-01,-0.02,2.308
-2.240e-01,0.06,2.288
-2.200e-01,-0.02,2.268
-2.160e-01,-0.1,2.288
-2.120e-01,-0.02,2.248
-2.080e-01,-0.1,2.228
-2.040e-01,-0.02,2.248
-2.000e-01,-0.02,2.248
-1.960e-01,-0.02,2.248
-1.920e-01,-0.02,2.228
-1.880e-01,-0.02,2.288
-1.840e-01,-0.1,2.248
-1.800e-01,-0.02,2.268
-1.760e-01,-0.02,2.228
-1.720e-01,-0.1,2.248
-1.680e-01,-0.02,2.268
-1.640e-01,-0.02,2.248
-1.600e-01,-0.02,2.248
-1.560e-01,-0.02,2.188
-1.520e-01,-0.02,2.248
-1.480e-01,-0.1,2.228
-1.440e-01,0.14,2.228
-1.400e-01,-0.02,2.268
-1.360e-01,-0.02,2.228
-1.320e-01,-0.02,2.228
-1.280e-01,0.06,2.208
-1.240e-01,-0.1,2.248
-1.200e-01,-0.02,2.228
-1.160e-01,-0.02,2.228
-1.120e-01,-0.02,2.268
-1.080e-01,-0.02,2.248
-1.040e-01,-0.1,2.288
-1.000e-01,0.06,2.308
-9.600e-02,-0.1,2.228
-9.200e-02,0.06,2.288
-8.800e-02,-0.02,2.268
-8.400e-02,-0.02,2.248
-8.000e-02,-0.02,2.288
-7.600e-02,-0.02,2.288
-7.200e-02,-0.02,2.288
-6.800e-02,-0.02,2.308
-6.400e-02,-0.02,2.288
-6.000e-02,-0.02,2.288
-5.600e-02,-0.02,2.328
-5.200e-02,-0.1,2.348
-4.800e-02,-0.18,2.348
-4.400e-02,0.06,2.308
-4.000e-02,-0.02,2.308
-3.600e-02,-0.18,2.308
-3.200e-02,-0.02,2.308
-2.800e-02,-0.02,2.348
-2.400e-02,-0.1,2.348
-2.000e-02,-0.02,2.348
-1.600e-02,-0.02,2.328
-1.200e-02,0.06,2.348
-8.000e-03,-0.02,2.368
-4.000e-03,-0.02,2.348
1.749e-15,-0.02,2.328
4.000e-03,0.06,2.368
8.000e-03,-0.02,2.368
1.200e-02,-0.02,2.388
1.600e-02,-0.02,2.368
2.000e-02,-0.02,2.408
2.400e-02,-0.1,2.348
2.800e-02,-0.02,2.388
3.200e-02,-0.02,2.368
3.600e-02,-0.1,2.368
4.000e-02,-0.18,2.368
4.400e-02,-0.02,2.368
4.800e-02,-0.1,2.388
5.200e-02,-0.02,2.388
5.600e-02,-0.02,2.348
6.000e-02,-0.1,2.368
6.400e-02,-0.02,2.408
6.800e-02,0.06,2.388
7.200e-02,0.14,2.348
7.600e-02,-0.1,2.388
8.000e-02,-0.02,2.368
8.400e-02,-0.02,2.408
8.800e-02,-0.02,2.348
9.200e-02,-0.02,2.388
9.600e-02,-0.02,2.328
1.000e-01,-0.02,2.348
1.040e-01,-0.02,2.368
1.080e-01,-0.02,2.408
1.120e-01,-0.02,2.388
1.160e-01,-0.02,2.368
1.200e-01,-0.1,2.348
1.240e-01,-0.02,2.368
1.280e-01,0.06,2.328
1.320e-01,-0.1,2.328
1.360e-01,-0.02,2.308
1.400e-01,-0.02,2.308
1.440e-01,-0.02,2.328
1.480e-01,-0.02,2.348
1.520e-01,-0.1,2.308
1.560e-01,-0.02,2.308
1.600e-01,0.06,2.348
1.640e-01,-0.1,2.328
1.680e-01,-0.02,2.348
1.720e-01,-0.1,2.308
1.760e-01,-0.02,2.308
1.800e-01,-0.02,2.308
1.840e-01,0.06,2.328
1.880e-01,-0.02,2.308
1.920e-01,-0.1,2.308
1.960e-01,-0.02,2.328
2.000e-01,-0.02,2.328
2.040e-01,-0.1,2.308
2.080e-01,-0.1,2.328
2.120e-01,-0.02,2.268
2.160e-01,-0.02,2.308
2.200e-01,-0.02,2.328
2.240e-01,-0.1,2.308
2.280e-01,-0.02,2.288
2.320e-01,0.06,2.248
2.360e-01,-0.1,2.268
2.400e-01,-0.1,2.308
2.440e-01,0.06,2.248
2.480e-01,-0.02,2.288
2.520e-01,-0.02,2.288
2.560e-01,-0.1,2.328
2.600e-01,-0.02,2.268
2.640e-01,-0.02,2.268
2.680e-01,-0.02,2.288
2.720e-01,-0.02,2.288
2.760e-01,0.06,2.268
2.800e-01,-0.02,2.288
2.840e-01,-0.1,2.308
2.880e-01,-0.02,2.268
2.920e-01,0.06,2.268
2.960e-01,-0.02,2.288
3.000e-01,-0.02,2.288
3.040e-01,-0.02,2.268
3.080e-01,-0.1,2.288
3.120e-01,-0.02,2.288
3.160e-01,-0.02,2.308
3.200e-01,-0.02,2.308
3.240e-01,-0.02,2.308
3.280e-01,-0.1,2.308
3.320e-01,-0.02,2.268
3.360e-01,-0.02,2.308
3.400e-01,-0.02,2.308
3.440e-01,0.06,2.288
3.480e-01,0.06,2.288
3.520e-01,-0.02,2.328
3.560e-01,0.06,2.308
3.600e-01,-0.1,2.328
3.640e-01,0.06,2.288
3.680e-01,0.06,2.288
3.720e-01,-0.1,2.328
3.760e-01,-0.02,2.348
3.800e-01,-0.02,2.308
3.840e-01,-0.02,2.308
3.880e-01,-0.02,2.308
3.920e-01,-0.1,2.308
3.960e-01,-0.02,2.328
4.000e-01,-0.02,2.328
4.040e-01,-0.1,2.328
4.080e-01,-0.02,2.328
4.120e-01,-0.1,2.348
4.160e-01,-0.02,2.308
4.200e-01,-0.02,2.308
4.240e-01,-0.02,2.328
4.280e-01,-0.18,2.368
4.320e-01,-0.1,2.368
4.360e-01,-0.02,2.368
4.400e-01,-0.02,2.388
4.440e-01,-0.1,2.328
4.480e-01,-0.02,2.368
4.520e-01,-0.02,2.328
4.560e-01,-0.02,2.348
4.600e-01,-0.02,2.308
4.640e-01,-0.02,2.348
4.680e-01,-0.02,2.348
4.720e-01,-0.1,2.388
4.760e-01,-0.02,2.368
4.800e-01,-0.02,2.368
4.840e-01,-0.1,2.348
4.880e-01,-0.1,2.328
4.920e-01,-0.02,2.348
4.960e-01,0.06,2.388
5.000e-01,-0.1,2.328
5.040e-01,-0.02,2.328
5.080e-01,0.06,2.328
5.120e-01,-0.02,2.348
5.160e-01,-0.1,2.368
5.200e-01,-0.02,2.368
5.240e-01,-0.02,2.328
5.280e-01,-0.02,2.328
5.320e-01,0.06,2.288
5.360e-01,-0.02,2.308
5.400e-01,0.06,2.348
5.440e-01,-0.02,2.348
5.480e-01,-0.02,2.328
5.520e-01,0.06,2.328
5.560e-01,-0.02,2.348
5.600e-01,-0.02,2.308
5.640e-01,-0.02,2.328
5.680e-01,-0.02,2.348
5.720e-01,-0.02,2.328
5.760e-01,-0.02,2.308
5.800e-01,-0.02,2.308
5.840e-01,-0.02,2.288
5.880e-01,-0.02,2.308
5.920e-01,-0.02,2.348
5.960e-01,-0.02,2.308
6.000e-01,0.06,2.288
6.040e-01,-0.02,2.308
6.080e-01,-0.02,2.308
6.120e-01,-0.1,2.308
6.160e-01,-0.02,2.348
6.200e-01,-0.02,2.308
6.240e-01,-0.02,2.348
6.280e-01,-0.1,2.328
6.320e-01,-0.18,2.328
6.360e-01,-0.1,2.308
6.400e-01,-0.02,2.288
6.440e-01,-0.02,2.328
6.480e-01,-0.1,2.308
6.520e-01,-0.02,2.268
6.560e-01,-0.02,2.348
6.600e-01,-0.02,2.308
6.640e-01,-0.02,2.288
6.680e-01,-0.02,2.328
6.720e-01,-0.1,2.328
6.760e-01,-0.18,2.328
6.800e-01,-0.02,2.348
6.840e-01,-0.02,2.308
6.880e-01,-0.02,2.308
6.920e-01,-0.02,2.328
6.960e-01,-0.02,2.328
7.000e-01,-0.02,2.308
7.040e-01,-0.02,2.288
7.080e-01,0.06,2.328
7.120e-01,-0.02,2.308
7.160e-01,-0.1,2.288
7.200e-01,-0.02,2.288
7.240e-01,-0.02,2.308
7.280e-01,0.06,2.328
7.320e-01,-0.1,2.308
7.360e-01,-0.1,2.328
7.400e-01,-0.02,2.328
7.440e-01,-0.02,2.308
7.480e-01,-0.02,2.328
7.520e-01,-0.02,2.308
7.560e-01,0.06,2.308
7.600e-01,-0.02,2.308
7.640e-01,-0.1,2.348
7.680e-01,-0.02,2.328
7.720e-01,-0.1,2.308
7.760e-01,-0.1,2.308
7.800e-01,-0.02,2.328
7.840e-01,0.06,2.308
7.880e-01,-0.02,2.268
7.920e-01,-0.02,2.348
7.960e-01,-0.02,2.288
8.000e-01,-0.1,2.308
8.040e-01,-0.02,2.308
8.080e-01,-0.02,2.308
8.120e-01,-0.18,2.308
8.160e-01,-0.02,2.308
8.200e-01,-0.1,2.328
8.240e-01,-0.18,2.328
8.280e-01,-0.02,2.348
8.320e-01,-0.1,2.328
8.360e-01,-0.02,2.348
8.400e-01,-0.1,2.368
8.440e-01,-0.02,2.348
8.480e-01,-0.02,2.308
8.520e-01,-0.1,2.348
8.560e-01,-0.02,2.328
8.600e-01,-0.02,2.368
8.640e-01,-0.02,2.348
8.680e-01,-0.18,2.328
8.720e-01,-0.1,2.328
8.760e-01,-0.02,2.328
8.800e-01,-0.1,2.308
8.840e-01,-0.02,2.328
8.880e-01,-0.02,2.348
8.920e-01,-0.02,2.288
8.960e-01,-0.02,2.348
9.000e-01,-0.02,2.348
9.040e-01,-0.02,2.308
9.080e-01,-0.02,2.288
9.120e-01,-0.02,2.328
9.160e-01,-0.02,2.328
9.200e-01,-0.02,2.348
9.240e-01,-0.1,2.328
9.280e-01,-0.02,2.288
9.320e-01,-0.02,2.288
9.360e-01,-0.1,2.308
9.400e-01,-0.02,2.328
9.440e-01,-0.02,2.368
9.480e-01,0.06,2.288
9.520e-01,-0.02,2.308
9.560e-01,-0.02,2.348
9.600e-01,-0.02,2.328
9.640e-01,-0.02,2.308
9.680e-01,-0.02,2.288
9.720e-01,-0.02,2.288
9.760e-01,0.06,2.288
9.800e-01,-0.02,2.308
9.840e-01,-0.02,2.308
9.880e-01,-0.02,2.308
9.920e-01,-0.02,2.328
9.960e-01,-0.02,2.308
1.000e+00,-0.02,2.328
1.004e+00,-0.02,2.288
1.008e+00,-0.02,2.328
1.012e+00,0.06,2.348
1.016e+00,-0.02,2.328
1.020e+00,-0.1,2.288
1.024e+00,-0.02,2.328
1.028e+00,-0.02,2.308
1.032e+00,-0.02,2.328
1.036e+00,0.06,2.308
1.040e+00,-0.02,2.288
1.044e+00,-0.1,2.328
1.048e+00,-0.1,2.348
1.052e+00,-0.02,2.328
1.056e+00,0.06,2.328
1.060e+00,-0.02,2.348
1.064e+00,-0.02,2.368
1.068e+00,-0.02,2.308
1.072e+00,-0.02,2.348
1.076e+00,-0.02,2.328
1.080e+00,-0.02,2.308
1.084e+00,0.06,2.288
1.088e+00,-0.1,2.308
1.092e+00,-0.02,2.328
1.096e+00,-0.02,2.288
1.100e+00,-0.02,2.288
1.104e+00,-0.02,2.308
1.108e+00,-0.02,2.328
1.112e+00,-0.02,2.308
1.116e+00,-0.02,2.308
1.120e+00,-0.18,2.288
1.124e+00,-0.02,2.328
1.128e+00,-0.02,2.348
1.132e+00,-0.1,2.308
1.136e+00,0.06,2.308
1.140e+00,-0.02,2.308
1.144e+00,-0.02,2.348
1.148e+00,-0.02,2.308
1.152e+00,0.06,2.328
1.156e+00,-0.18,2.328
1.160e+00,-0.02,2.308
1.164e+00,-0.1,2.328
1.168e+00,-0.02,2.328
1.172e+00,-0.02,2.328
1.176e+00,0.06,2.308
1.180e+00,-0.02,2.348
1.184e+00,-0.02,2.348
1.188e+00,-0.02,2.328
1.192e+00,-0.1,2.348
1.196e+00,-0.02,2.308
1.200e+00,-0.02,2.328
1.204e+00,-0.02,2.288
1.208e+00,-0.02,2.288
1.212e+00,-0.02,2.288
1.216e+00,-0.02,2.328
1.220e+00,-0.1,2.308
1.224e+00,-0.02,2.328
1.228e+00,-0.02,2.308
1.232e+00,-0.1,2.328
1.236e+00,-0.02,2.348
1.240e+00,-0.02,2.308
1.244e+00,0.06,2.308
1.248e+00,-0.02,2.308
1.252e+00,-0.1,2.308
1.256e+00,-0.1,2.308
1.260e+00,-0.1,2.288
1.264e+00,-0.02,2.348
1.268e+00,0.06,2.308
1.272e+00,-0.02,2.308
1.276e+00,0.06,2.328
1.280e+00,-0.02,2.308
1.284e+00,-0.02,2.328
1.288e+00,-0.02,2.348
1.292e+00,-0.02,2.308
1.296e+00,-0.02,2.308
1.300e+00,-0.1,2.308
1.304e+00,-0.02,2.348
1.308e+00,-0.02,2.328
1.312e+00,-0.02,2.328
1.316e+00,-0.02,2.308
1.320e+00,0.06,2.288
1.324e+00,-0.02,2.308
1.328e+00,-0.1,2.308
1.332e+00,-0.02,2.288
1.336e+00,-0.1,2.308
1.340e+00,-0.02,2.308
1.344e+00,-0.02,2.308
1.348e+00,-0.02,2.288
1.352e+00,-0.02,2.328
1.356e+00,0.06,2.368
1.360e+00,0.06,2.328
1.364e+00,-0.02,2.348
1.368e+00,-0.02,2.288
1.372e+00,-0.02,2.308
1.376e+00,-0.02,2.328
1.380e+00,-0.02,2.288
1.384e+00,-0.02,2.328
1.388e+00,-0.02,2.328
1.392e+00,-0.1,2.308
1.396e+00,-0.02,2.328
1.400e+00,-0.02,2.268
1.404e+00,0.06,2.328
1.408e+00,0.06,2.348
1.412e+00,-0.02,2.348
1.416e+00,-0.02,2.308
1.420e+00,-0.02,2.328
1.424e+00,-0.02,2.348
1.428e+00,-0.02,2.328
1.432e+00,0.06,2.328
1.436e+00,-0.1,2.308
1.440e+00,-0.02,2.268
1.444e+00,0.06,2.308
1.448e+00,-0.02,2.308
1.452e+00,0.06,2.348
1.456e+00,-0.1,2.328
1.460e+00,-0.02,2.308
1.464e+00,-0.02,2.308
1.468e+00,0.06,2.348
1.472e+00,-0.02,2.308
1.476e+00,0.06,2.348
1.480e+00,-0.1,2.328
1.484e+00,0.06,2.288
1.488e+00,-0.02,2.328
1.492e+00,-0.02,2.308
1.496e+00,-0.02,2.328
1.500e+00,-0.02,2.308
1.504e+00,-0.1,2.328
1.508e+00,-0.02,2.308
1.512e+00,-0.02,2.328
1.516e+00,-0.02,2.308
1.520e+00,-0.1,2.308
1.524e+00,-0.02,2.368
1.528e+00,-0.02,2.288
1.532e+00,-0.02,2.348
1.536e+00,-0.02,2.328
