res/logs/swl/tek0008ALL.csv

Model,DPO3032
Firmware Version,2.16

Point Format,Y,
Horizontal Units,S,
Horizontal Scale,0.4,
Sample Interval,0.004,
Record Length,1000,
Gating,0.0% to 100.0%,0.0% to 100.0%
Probe Attenuation,1,1
Vertical Units,V,V
Vertical Offset,-0.02,2.578
Vertical Scale,2,0.5
Label,IN,OUT
TIME,CH1,CH2
-2.000e+00,-0.02,2.368
-1.996e+00,-0.02,2.368
-1.992e+00,-0.18,2.388
-1.988e+00,-0.02,2.428
-1.984e+00,0.06,2.388
-1.980e+00,-0.02,2.368
-1.976e+00,-0.1,2.348
-1.972e+00,0.06,2.348
-1.968e+00,-0.02,2.428
-1.964e+00,-0.02,2.448
-1.960e+00,-0.02,2.408
-1.956e+00,-0.02,2.368
-1.952e+00,-0.02,2.368
-1.948e+00,-0.02,2.308
-1.944e+00,-0.1,2.368
-1.940e+00,0.06,2.368
-1.936e+00,-0.02,2.388
-1.932e+00,-0.18,2.428
-1.928e+00,-0.02,2.368
-1.924e+00,-0.1,2.348
-1.920e+00,-0.02,2.348
-1.916e+00,-0.02,2.308
-1.912e+00,-0.1,2.348
-1.908e+00,0.06,2.328
-1.904e+00,-0.1,2.328
-1.900e+00,-0.1,2.328
-1.896e+00,-0.02,2.388
-1.892e+00,0.14,2.348
-1.888e+00,-0.02,2.368
-1.884e+00,-0.1,2.308
-1.880e+00,0.06,2.328
-1.876e+00,-0.02,2.308
-1.872e+00,-0.1,2.308
-1.868e+00,0.06,2.328
-1.864e+00,0.06,2.328
-1.860e+00,-0.1,2.308
-1.856e+00,-0.02,2.348
-1.852e+00,-0.1,2.308
-1.848e+00,-0.02,2.328
-1.844e+00,-0.02,2.328
-1.840e+00,-0.1,2.308
-1.836e+00,-0.02,2.328
-1.832e+00,-0.02,2.368
-1.828e+00,-0.02,2.308
-1.824e+00,-0.02,2.328
-1.820e+00,-0.1,2.328
-1.816e+00,-0.02,2.308
-1.812e+00,-0.02,2.308
-1.808e+00,-0.18,2.328
-1.804e+00,0.06,2.308
-1.800e+00,-0.1,2.308
-1.796e+00,-0.02,2.328
-1.792e+00,-0.02,2.288
-1.788e+00,-0.02,2.288
-1.784e+00,-0.1,2.328
-1.780e+00,-0.02,2.288
-1.776e+00,-0.1,2.308
-1.772e+00,-0.02,2.288
-1.768e+00,-0.1,2.328
-1.764e+00,-0.02,2.328
-1.760e+00,-0.02,2.288
-1.756e+00,-0.02,2.308
-1.752e+00,-0.1,2.308
-1.748e+00,0.06,2.308
-1.744e+00,-0.02,2.328
-1.740e+00,-0.02,2.288
-1.736e+00,-0.1,2.308
-1.732e+00,-0.02,2.308
-1.728e+00,-0.02,2.328
-1.724e+00,-0.1,2.368
-1.720e+00,-0.02,2.348
-1.716e+00,-0.02,2.288
-1.712e+00,-0.1,2.368
-1.708e+00,-0.02,2.288
-1.704e+00,-0.02,2.308
-1.700e+00,0.06,2.288
-1.696e+00,-0.02,2.348
-1.692e+00,-0.02,2.328
-1.688e+00,-0.02,2.328
-1.684e+00,-0.02,2.328
-1.680e+00,0.06,2.348
-1.676e+00,0.06,2.328
-1.672e+00,-0.02,2.328
-1.668e+00,-0.02,2.308
-1.664e+00,-0.02,2.348
-1.660e+00,0.06,2.388
-1.656e+00,-0.02,2.368
-1.652e+00,-0.02,2.328
-1.648e+00,0.14,2.348
-1.644e+00,-0.1,2.348
-1.640e+00,-0.02,2.368
-1.636e+00,-0.1,2.368
-1.632e+00,-0.02,2.348
-1.628e+00,-0.1,2.348
-1.624e+00,-0.02,2.368
-1.620e+00,-0.18,2.388
-1.616e+00,-0.02,2.368
-1.612e+00,0.06,2.368
-1.608e+00,-0.1,2.328
-1.604e+00,-0.02,2.368
-1.600e+00,-0.02,2.408
-1.596e+00,-0.02,2.348
-1.592e+00,-0.02,2.348
-1.588e+00,-0.02,2.348
-1.584e+00,-0.02,2.388
-1.580e+00,-0.02,2.368
-1.576e+00,-0.02,2.368
-1.572e+00,-0.02,2.388
-1.568e+00,-0.1,2.368
-1.564e+00,-0.02,2.428
-1.560e+00,-0.02,2.408
-1.556e+00,-0.1,2.388
-1.552e+00,0.06,2.428
-1.548e+00,-0.02,2.388
-1.544e+00,-0.02,2.368
-1.540e+00,-0.02,2.408
-1.536e+00,-0.02,2.448
-1.532e+00,-0.02,2.408
-1.528e+00,-0.1,2.408
-1.524e+00,-0.02,2.448
-1.520e+00,-0.02,2.428
-1.516e+00,-0.02,2.428
-1.512e+00,-0.02,2.408
-1.508e+00,-0.02,2.408
-1.504e+00,-0.02,2.448
-1.500e+00,-0.02,2.448
-1.496e+00,-0.02,2.448
-1.492e+00,-0.02,2.408
-1.488e+00,-0.02,2.468
-1.484e+00,-0.02,2.468
-1.480e+00,-0.02,2.448
-1.476e+00,-0.02,2.468
-1.472e+00,-0.02,2.468
-1.468e+00,0.06,2.468
-1.464e+00,-0.02,2.428
-1.460e+00,-0.02,2.508
-1.456e+00,-0.02,2.488
-1.452e+00,-0.02,2.468
-1.448e+00,-0.02,2.448
-1.444e+00,-0.1,2.508
-1.440e+00,-0.02,2.508
-1.436e+00,-0.02,2.508
-1.432e+00,-0.02,2.488
-1.428e+00,0.06,2.508
-1.424e+00,-0.1,2.528
-1.420e+00,-0.02,2.508
-1.416e+00,-0.02,2.528
-1.412e+00,-0.02,2.548
-1.408e+00,-0.02,2.548
-1.404e+00,-0.02,2.548
-1.400e+00,-0.02,2.508
-1.396e+00,-0.02,2.508
-1.392e+00,-0.02,2.508
-1.388e+00,-0.1,2.568
-1.384e+00,0.06,2.528
-1.380e+00,-0.02,2.548
-1.376e+00,-0.02,2.548
-1.372e+00,-0.02,2.548
-1.368e+00,-0.02,2.568
-1.364e+00,-0.02,2.548
-1.360e+00,-0.02,2.568
-1.356e+00,-0.02,2.548
-1.352e+00,-0.02,2.568
-1.348e+00,-0.02,2.568
-1.344e+00,-0.02,2.588
-1.340e+00,-0.1,2.608
-1.336e+00,-0.02,2.568
-1.332e+00,-0.02,2.588
-1.328e+00,-0.1,2.568
-1.324e+00,-0.1,2.608
-1.320e+00,-0.1,2.648
-1.316e+00,-0.1,2.568
-1.312e+00,-0.02,2.648
-1.308e+00,0.06,2.648
-1.304e+00,-0.1,2.648
-1.300e+00,-0.1,2.608
-1.296e+00,-0.02,2.628
-1.292e+00,-0.02,2.608
-1.288e+00,0.06,2.628
-1.284e+00,-0.02,2.688
-1.280e+00,-0.02,2.608
-1.276e+00,-0.02,2.648
-1.272e+00,-0.02,2.668
-1.268e+00,-0.02,2.628
-1.264e+00,-0.1,2.688
-1.260e+00,-0.02,2.688
-1.256e+00,-0.18,2.688
-1.252e+00,-0.02,2.688
-1.248e+00,-0.02,2.708
-1.244e+00,-0.02,2.688
-1.240e+00,-0.02,2.708
-1.236e+00,-0.02,2.708
-1.232e+00,-0.02,2.708
-1.228e+00,-0.02,2.728
-1.224e+00,-0.02,2.728
-1.220e+00,-0.02,2.688
-1.216e+00,-0.02,2.708
-1.212e+00,-0.02,2.748
-1.208e+00,-0.02,2.708
-1.204e+00,-0.02,2.748
-1.200e+00,0.06,2.688
-1.196e+00,-0.02,2.688
-1.192e+00,-0.02,2.728
-1.188e+00,-0.02,2.748
-1.184e+00,-0.02,2.788
-1.180e+00,-0.02,2.728
-1.176e+00,-0.1,2.748
-1.172e+00,-0.02,2.768
-1.168e+00,-0.02,2.748
-1.164e+00,-0.02,2.728
-1.160e+00,-0.02,2.808
-1.156e+00,-0.02,2.768
-1.152e+00,-0.1,2.788
-1.148e+00,-0.02,2.788
-1.144e+00,-0.02,2.768
-1.140e+00,-0.1,2.768
-1.136e+00,-0.02,2.808
-1.132e+00,-0.02,2.808
-1.128e+00,-0.02,2.808
-1.124e+00,-0.1,2.808
-1.120e+00,-0.02,2.848
-1.116e+00,-0.1,2.848
-1.112e+00,0.06,2.788
-1.108e+00,-0.1,2.828
-1.104e+00,-0.02,2.788
-1.100e+00,-0.02,2.828
-1.096e+00,0.06,2.848
-1.092e+00,-0.1,2.868
-1.088e+00,-0.02,2.828
-1.084e+00,-0.02,2.828
-1.080e+00,-0.18,2.808
-1.076e+00,-0.02,2.888
-1.072e+00,-0.02,2.868
-1.068e+00,-0.02,2.868
-1.064e+00,-0.02,2.868
-1.060e+00,0.06,2.888
-1.056e+00,-0.02,2.868
-1.052e+00,-0.02,2.868
-1.048e+00,-0.1,2.868
-1.044e+00,-0.1,2.868
-1.040e+00,-0.02,2.888
-1.036e+00,-0.02,2.888
-1.032e+00,-0.02,2.908
-1.028e+00,-0.02,2.888
-1.024e+00,-0.02,2.868
-1.020e+00,-0.1,2.908
-1.016e+00,-0.02,2.908
-1.012e+00,-0.02,2.908
-1.008e+00,-0.02,2.888
-1.004e+00,-0.02,2.928
-1.000e-00,-0.02,2.908
-9.960e-01,-0.1,2.888
-9.920e-01,-0.02,2.888
-9.880e-01,-0.02,2.888
-9.840e-01,-0.1,2.928
-9.800e-01,-0.02,2.928
-9.760e-01,-0.1,2.908
-9.720e-01,-0.02,2.928
-9.680e-01,-0.02,2.948
-9.640e-01,-0.02,2.948
-9.600e-01,-0.02,2.908
-9.560e-01,-0.02,2.928
-9.520e-01,-0.1,2.908
-9.480e-01,-0.02,2.908
-9.440e-01,-0.02,2.928
-9.400e-01,0.06,2.968
-9.360e-01,-0.02,2.968
-9.320e-01,-0.02,2.988
-9.280e-01,-0.02,2.948
-9.240e-01,-0.18,2.968
-9.200e-01,-0.1,2.948
-9.160e-01,0.06,2.948
-9.120e-01,-0.18,2.968
-9.080e-01,-0.1,2.948
-9.040e-01,-0.02,2.948
-9.000e-01,4.78,2.968
-8.960e-01,4.7,2.928
-8.920e-01,4.7,2.908
-8.880e-01,4.7,2.948
-8.840e-01,4.7,2.948
-8.800e-01,4.62,2.928
-8.760e-01,4.78,2.968
-8.720e-01,4.62,2.948
-8.680e-01,4.7,2.968
-8.640e-01,4.62,2.948
-8.600e-01,4.7,2.928
-8.560e-01,4.78,2.968
-8.520e-01,4.78,2.968
-8.480e-01,4.62,2.928
-8.440e-01,4.62,2.948
-8.400e-01,4.7,2.968
-8.360e-01,4.7,2.968
-8.320e-01,4.7,2.968
-8.280e-01,4.62,2.948
-8.240e-01,4.62,2.988
-8.200e-01,4.62,2.988
-8.160e-01,4.62,2.968
-8.120e-01,4.62,2.948
-8.080e-01,4.62,2.948
-8.040e-01,4.54,2.988
-8.000e-01,4.62,2.928
-7.960e-01,4.7,2.908
-7.920e-01,4.62,2.928
-7.880e-01,4.62,2.968
-7.840e-01,4.78,2.988
-7.800e-01,4.62,2.948
-7.760e-01,4.86,2.968
-7.720e-01,4.54,2.968
-7.680e-01,4.54,2.948
-7.640e-01,-0.02,2.908
-7.600e-01,-0.02,2.968
-7.560e-01,0.14,2.928
-7.520e-01,-0.1,2.968
-7.480e-01,-0.02,2.908
-7.440e-01,-0.02,2.948
-7.400e-01,0.06,2.948
-7.360e-01,-0.02,2.968
-7.320e-01,-0.02,2.968
-7.280e-01,-0.02,2.908
-7.240e-01,-0.02,2.928
-7.200e-01,-0.02,2.928
-7.160e-01,-0.02,2.928
-7.120e-01,-0.02,2.888
-7.080e-01,-0.1,2.928
-7.040e-01,-0.02,2.928
-7.000e-01,-0.02,2.908
-6.960e-01,-0.02,2.908
-6.920e-01,-0.02,2.888
-6.880e-01,-0.1,2.888
-6.840e-01,-0.1,2.928
-6.800e-01,-0.1,2.888
-6.760e-01,-0.02,2.868
-6.720e-01,-0.02,2.908
-6.680e-01,0.14,2.868
-6.640e-01,-0.02,2.868
-6.600e-01,-0.02,2.908
-6.560e-01,-0.02,2.868
-6.520e-01,-0.02,2.888
-6.480e-01,-0.02,2.888
-6.440e-01,-0.02,2.888
-6.400e-01,-0.02,2.888
-6.360e-01,-0.02,2.868
-6.320e-01,0.06,2.868
-6.280e-01,0.06,2.868
-6.240e-01,-0.1,2.868
-6.200e-01,-0.02,2.888
-6.160e-01,-0.02,2.868
-6.120e-01,-0.02,2.828
-6.080e-01,-0.02,2.848
-6.040e-01,-0.02,2.808
-6.000e-01,-0.18,2.868
-5.960e-01,-0.02,2.828
-5.920e-01,-0.02,2.868
-5.880e-01,-0.02,2.808
-5.840e-01,-0.02,2.868
-5.800e-01,-0.02,2.868
-5.760e-01,0.06,2.828
-5.720e-01,-0.02,2.788
-5.680e-01,-0.02,2.788
-5.640e-01,-0.02,2.808
-5.600e-01,-0.02,2.808
-5.560e-01,0.06,2.788
-5.520e-01,-0.1,2.768
-5.480e-01,-0.02,2.828
-5.440e-01,-0.02,2.788
-5.400e-01,-0.02,2.788
-5.360e-01,0.06,2.788
-5.320e-01,-0.02,2.788
-5.280e-01,-0.02,2.768
-5.240e-01,-0.1,2.748
-5.200e-01,-0.02,2.768
-5.160e-01,0.06,2.748
-5.120e-01,-0.02,2.768
-5.080e-01,-0.1,2.768
-5.040e-01,-0.02,2.788
-5.000e-01,0.06,2.708
-4.960e-01,-0.02,2.768
-4.920e-01,-0.02,2.728
-4.880e-01,-0.02,2.728
-4.840e-01,0.14,2.748
-4.800e-01,-0.02,2.748
-4.760e-01,-0.1,2.688
-4.720e-01,-0.02,2.708
-4.680e-01,-0.02,2.708
-4.640e-01,0.14,2.688
-4.600e-01,-0.02,2.708
-4.560e-01,-0.1,2.748
-4.520e-01,-0.02,2.768
-4.480e-01,-0.26,2.688
-4.440e-01,-0.02,2.708
-4.400e-01,-0.02,2.708
-4.360e-01,0.06,2.688
-4.320e-01,-0.02,2.668
-4.280e-01,-0.02,2.688
-4.240e-01,0.06,2.648
-4.200e-01,0.06,2.628
-4.160e-01,-0.02,2.668
-4.120e-01,-0.02,2.608
-4.080e-01,-0.1,2.648
-4.040e-01,-0.1,2.668
-4.000e-01,-0.02,2.648
-3.960e-01,-0.02,2.608
-3.920e-01,-0.1,2.688
-3.880e-01,-0.02,2.608
-3.840e-01,-0.02,2.648
-3.800e-01,-0.1,2.588
-3.760e-01,-0.02,2.588
-3.720e-01,-0.02,2.648
-3.680e-01,-0.02,2.648
-3.640e-01,-0.02,2.588
-3.600e-01,-0.02,2.568
-3.560e-01,-0.02,2.608
-3.520e-01,0.06,2.568
-3.480e-01,-0.02,2.568
-3.440e-01,-0.02,2.608
-3.400e-01,-0.02,2.568
-3.360e-01,-0.1,2.568
-3.320e-01,0.06,2.568
-3.280e-01,0.06,2.568
-3.240e-01,-0.1,2.568
-3.200e-01,-0.02,2.548
-3.160e-01,-0.02,2.568
-3.120e-01,-0.02,2.568
-3.080e-01,-0.02,2.568
-3.040e-01,-0.02,2.548
-3.000e-01,-0.02,2.548
-2.960e-01,0.06,2.508
-2.920e-01,-0.1,2.548
-2.880e-01,-0.02,2.508
-2.840e-01,-0.1,2.548
-2.800e-01,-0.02,2.528
-2.760e-01,-0.1,2.568
-2.720e-01,-0.02,2.528
-2.680e-01,-0.02,2.468
-2.640e-01,-0.02,2.488
-2.600e-01,-0.1,2.488
-2.560e-01,-0.02,2.528
-2.520e-01,-0.02,2.508
-2.480e-01,-0.02,2.528
-2.440e-01,-0.02,2.488
-2.400e-01,-0.1,2.488
-2.360e-01,-0.1,2.488
-2.320e-01,-0.02,2.428
-2.280e-01,-0.02,2.468
-2.240e-01,-0.1,2.488
-2.200e-01,-0.02,2.468
-2.160e-01,-0.1,2.488
-2.120e-01,-0.02,2.508
-2.080e-01,-0.02,2.448
-2.040e-01,-0.1,2.428
-2.000e-01,-0.02,2.448
-1.960e-01,-0.02,2.468
-1.920e-01,-0.02,2.448
-1.880e-01,-0.02,2.428
-1.840e-01,-0.02,2.428
-1.800e-01,-0.02,2.408
-1.760e-01,-0.1,2.428
-1.720e-01,-0.02,2.448
-1.680e-01,-0.02,2.408
-1.640e-01,-0.02,2.408
-1.600e-01,-0.1,2.448
-1.560e-01,0.06,2.408
-1.520e-01,-0.02,2.428
-1.480e-01,-0.02,2.428
-1.440e-01,-0.1,2.428
-1.400e-01,-0.1,2.388
-1.360e-01,-0.02,2.328
-1.320e-01,-0.02,2.408
-1.280e-01,-0.02,2.428
-1.240e-01,-0.02,2.388
-1.200e-01,-0.02,2.428
-1.160e-01,-0.02,2.368
-1.120e-01,-0.02,2.348
-1.080e-01,-0.02,2.368
-1.040e-01,-0.1,2.368
-1.000e-01,0.06,2.348
-9.600e-02,-0.02,2.388
-9.200e-02,-0.02,2.348
-8.800e-02,0.06,2.368
-8.400e-02,-0.1,2.348
-8.000e-02,-0.02,2.328
-7.600e-02,-0.02,2.368
-7.200e-02,-0.02,2.388
-6.800e-02,-0.02,2.328
-6.400e-02,-0.02,2.348
-6.000e-02,-0.02,2.388
-5.600e-02,-0.02,2.368
-5.200e-02,-0.02,2.368
-4.800e-02,-0.02,2.348
-4.400e-02,0.06,2.368
-4.000e-02,-0.1,2.368
-3.600e-02,-0.02,2.328
-3.200e-02,-0.02,2.328
-2.800e-02,-0.02,2.328
-2.400e-02,-0.1,2.368
-2.000e-02,-0.02,2.288
-1.600e-02,-0.1,2.308
-1.200e-02,-0.18,2.328
-8.000e-03,-0.02,2.308
-4.000e-03,-0.02,2.308
1.749e-15,-0.02,2.308
4.000e-03,-0.02,2.308
8.000e-03,-0.02,2.368
1.200e-02,-0.1,2.328
1.600e-02,-0.02,2.328
2.000e-02,-0.1,2.328
2.400e-02,-0.02,2.308
2.800e-02,-0.02,2.308
3.200e-02,0.06,2.328
3.600e-02,-0.02,2.288
4.000e-02,0.06,2.348
4.400e-02,-0.02,2.308
4.800e-02,-0.1,2.328
5.200e-02,-0.02,2.308
5.600e-02,-0.02,2.288
6.000e-02,-0.1,2.288
6.400e-02,-0.02,2.328
6.800e-02,-0.1,2.308
7.200e-02,-0.1,2.288
7.600e-02,-0.02,2.308
8.000e-02,0.14,2.328
8.400e-02,-0.02,2.288
8.800e-02,-0.1,2.288
9.200e-02,0.14,2.268
9.600e-02,-0.1,2.328
1.000e-01,-0.02,2.308
1.040e-01,-0.02,2.308
1.080e-01,-0.02,2.288
1.120e-01,-0.02,2.288
1.160e-01,-0.02,2.328
1.200e-01,-0.02,2.348
1.240e-01,-0.1,2.288
1.280e-01,-0.02,2.288
1.320e-01,-0.02,2.348
1.360e-01,-0.02,2.308
1.400e-01,-0.02,2.328
1.440e-01,-0.02,2.308
1.480e-01,-0.02,2.348
1.520e-01,-0.02,2.348
1.560e-01,-0.02,2.348
1.600e-01,-0.1,2.308
1.640e-01,-0.02,2.308
1.680e-01,-0.1,2.308
1.720e-01,-0.02,2.288
1.760e-01,-0.02,2.328
1.800e-01,-0.02,2.348
1.840e-01,-0.02,2.308
1.880e-01,0.06,2.368
1.920e-01,-0.02,2.328
1.960e-01,-0.02,2.308
2.000e-01,-0.02,2.328
2.040e-01,0.06,2.288
2.080e-01,0.06,2.348
2.120e-01,-0.02,2.368
2.160e-01,-0.1,2.348
2.200e-01,-0.02,2.368
2.240e-01,-0.1,2.348
2.280e-01,-0.02,2.328
2.320e-01,0.06,2.328
2.360e-01,-0.02,2.308
2.400e-01,-0.02,2.348
2.440e-01,-0.02,2.408
2.480e-01,-0.1,2.388
2.520e-01,-0.02,2.348
2.560e-01,-0.1,2.408
2.600e-01,-0.1,2.368
2.640e-01,-0.02,2.308
2.680e-01,-0.02,2.328
2.720e-01,-0.02,2.408
2.760e-01,-0.02,2.308
2.800e-01,-0.1,2.368
2.840e-01,0.06,2.368
2.880e-01,-0.02,2.388
2.920e-01,-0.02,2.388
2.960e-01,-0.02,2.388
3.000e-01,-0.02,2.368
3.040e-01,-0.02,2.388
3.080e-01,-0.02,2.368
3.120e-01,-0.02,2.408
3.160e-01,-0.1,2.408
3.200e-01,-0.02,2.388
3.240e-01,-0.02,2.388
3.280e-01,0.06,2.388
3.320e-01,-0.02,2.448
3.360e-01,-0.02,2.448
3.400e-01,0.06,2.388
3.440e-01,0.06,2.428
3.480e-01,-0.02,2.428
3.520e-01,0.06,2.428
3.560e-01,-0.02,2.428
3.600e-01,-0.02,2.448
3.640e-01,-0.02,2.428
3.680e-01,-0.02,2.428
3.720e-01,-0.02,2.468
3.760e-01,-0.1,2.448
3.800e-01,-0.1,2.468
3.840e-01,-0.1,2.468
3.880e-01,-0.02,2.488
3.920e-01,-0.02,2.448
3.960e-01,0.06,2.468
4.000e-01,-0.02,2.468
4.040e-01,-0.02,2.548
4.080e-01,-0.1,2.468
4.120e-01,-0.1,2.488
4.160e-01,-0.02,2.448
4.200e-01,-0.02,2.468
4.240e-01,-0.1,2.468
4.280e-01,-0.02,2.448
4.320e-01,-0.02,2.448
4.360e-01,-0.02,2.508
4.400e-01,-0.1,2.528
4.440e-01,-0.02,2.548
4.480e-01,-0.02,2.508
4.520e-01,-0.02,2.488
4.560e-01,-0.02,2.528
4.600e-01,-0.02,2.548
4.640e-01,0.06,2.508
4.680e-01,0.06,2.528
4.720e-01,-0.02,2.528
4.760e-01,-0.02,2.528
4.800e-01,-0.02,2.508
4.840e-01,0.06,2.528
4.880e-01,-0.02,2.568
4.920e-01,-0.02,2.568
4.960e-01,0.06,2.548
5.000e-01,-0.02,2.568
5.040e-01,-0.02,2.548
5.080e-01,0.06,2.608
5.120e-01,0.06,2.568
5.160e-01,-0.02,2.588
5.200e-01,-0.02,2.568
5.240e-01,-0.02,2.568
5.280e-01,0.14,2.568
5.320e-01,0.06,2.568
5.360e-01,-0.02,2.568
5.400e-01,-0.02,2.568
5.440e-01,0.06,2.608
5.480e-01,-0.02,2.588
5.520e-01,-0.02,2.568
5.560e-01,-0.1,2.588
5.600e-01,-0.02,2.668
5.640e-01,-0.02,2.608
5.680e-01,-0.02,2.568
5.720e-01,-0.1,2.628
5.760e-01,-0.02,2.628
5.800e-01,-0.02,2.648
5.840e-01,-0.02,2.628
5.880e-01,-0.1,2.668
5.920e-01,-0.02,2.628
5.960e-01,-0.02,2.648
6.000e-01,-0.18,2.648
6.040e-01,-0.02,2.648
6.080e-01,0.14,2.668
6.120e-01,-0.02,2.648
6.160e-01,-0.02,2.688
6.200e-01,-0.1,2.688
6.240e-01,-0.02,2.688
6.280e-01,0.06,2.688
6.320e-01,-0.02,2.668
6.360e-01,-0.02,2.688
6.400e-01,0.06,2.708
6.440e-01,-0.02,2.688
6.480e-01,-0.02,2.708
6.520e-01,0.06,2.668
6.560e-01,-0.02,2.728
6.600e-01,-0.02,2.688
6.640e-01,-0.02,2.728
6.680e-01,-0.1,2.728
6.720e-01,-0.02,2.728
6.760e-01,-0.1,2.728
6.800e-01,-0.1,2.748
6.840e-01,-0.02,2.748
6.880e-01,-0.02,2.708
6.920e-01,-0.1,2.808
6.960e-01,-0.02,2.748
7.000e-01,0.06,2.748
7.040e-01,-0.1,2.808
7.080e-01,-0.02,2.768
7.120e-01,-0.02,2.808
7.160e-01,-0.02,2.788
7.200e-01,0.06,2.808
7.240e-01,-0.02,2.828
7.280e-01,-0.02,2.768
7.320e-01,-0.1,2.808
7.360e-01,0.06,2.828
7.400e-01,-0.02,2.808
7.440e-01,-0.02,2.788
7.480e-01,-0.02,2.828
7.520e-01,-0.02,2.828
7.560e-01,-0.02,2.848
7.600e-01,0.06,2.828
7.640e-01,-0.1,2.828
7.680e-01,-0.1,2.828
7.720e-01,-0.1,2.828
7.760e-01,-0.02,2.828
7.800e-01,-0.02,2.848
7.840e-01,-0.02,2.888
7.880e-01,-0.02,2.808
7.920e-01,-0.02,2.848
7.960e-01,-0.1,2.868
8.000e-01,-0.1,2.888
8.040e-01,0.06,2.848
8.080e-01,-0.02,2.828
8.120e-01,-0.02,2.888
8.160e-01,-0.02,2.868
8.200e-01,-0.02,2.868
8.240e-01,0.06,2.888
8.280e-01,-0.02,2.868
8.320e-01,-0.02,2.908
8.360e-01,-0.02,2.908
8.400e-01,-0.02,2.888
8.440e-01,-0.02,2.928
8.480e-01,-0.02,2.888
8.520e-01,-0.02,2.928
8.560e-01,-0.1,2.868
8.600e-01,-0.02,2.908
8.640e-01,0.06,2.888
8.680e-01,0.06,2.948
8.720e-01,-0.02,2.888
8.760e-01,-0.02,2.888
8.800e-01,-0.02,2.908
8.840e-01,-0.02,2.888
8.880e-01,-0.02,2.888
8.920e-01,-0.1,2.928
8.960e-01,-0.02,2.928
9.000e-01,-0.02,2.968
9.040e-01,-0.02,2.928
9.080e-01,0.06,2.928
9.120e-01,-0.02,2.928
9.160e-01,-0.02,2.948
9.200e-01,-0.02,2.928
9.240e-01,-0.02,2.888
9.280e-01,-0.1,2.888
9.320e-01,-0.02,2.928
9.360e-01,0.06,2.948
9.400e-01,-0.02,2.968
9.440e-01,-0.02,2.928
9.480e-01,-0.02,2.928
9.520e-01,-0.02,2.928
9.560e-01,-0.02,2.928
9.600e-01,-0.02,2.928
9.640e-01,-0.02,2.928
9.680e-01,4.62,2.948
9.720e-01,4.78,2.948
9.760e-01,4.78,2.928
9.800e-01,4.7,2.928
9.840e-01,4.62,2.968
9.880e-01,4.7,2.968
9.920e-01,4.7,2.948
9.960e-01,4.7,2.948
1.000e+00,4.7,2.948
1.004e+00,4.62,2.948
1.008e+00,4.62,2.908
1.012e+00,4.7,2.948
1.016e+00,4.7,2.988
1.020e+00,4.62,2.948
1.024e+00,4.7,2.968
1.028e+00,4.7,2.988
1.032e+00,4.7,2.968
1.036e+00,4.62,2.968
1.040e+00,4.7,2.928
1.044e+00,4.7,2.968
1.048e+00,4.7,3.008
1.052e+00,4.78,2.948
1.056e+00,4.7,2.928
1.060e+00,4.7,2.948
1.064e+00,4.7,2.948
1.068e+00,4.7,2.928
1.072e+00,4.78,2.948
1.076e+00,4.78,2.968
1.080e+00,4.62,2.928
1.084e+00,4.7,2.928
1.088e+00,4.78,2.948
1.092e+00,4.62,2.968
1.096e+00,4.62,2.988
1.100e+00,4.7,2.948
1.104e+00,-0.02,2.908
1.108e+00,-0.1,2.948
1.112e+00,-0.1,2.948
1.116e+00,-0.02,2.948
1.120e+00,-0.02,2.948
1.124e+00,-0.02,2.948
1.128e+00,0.06,2.948
1.132e+00,0.06,2.888
1.136e+00,-0.1,2.968
1.140e+00,-0.02,2.948
1.144e+00,-0.1,2.928
1.148e+00,-0.02,2.928
1.152e+00,-0.02,2.888
1.156e+00,-0.02,2.948
1.160e+00,-0.02,2.928
1.164e+00,-0.02,2.888
1.168e+00,-0.02,2.928
1.172e+00,-0.02,2.948
1.176e+00,-0.02,2.928
1.180e+00,-0.02,2.908
1.184e+00,0.06,2.908
1.188e+00,-0.02,2.888
1.192e+00,-0.1,2.908
1.196e+00,-0.02,2.948
1.200e+00,0.06,2.848
1.204e+00,-0.02,2.888
1.208e+00,-0.02,2.888
1.212e+00,-0.02,2.888
1.216e+00,-0.02,2.888
1.220e+00,-0.1,2.868
1.224e+00,-0.1,2.888
1.228e+00,-0.02,2.888
1.232e+00,-0.02,2.868
1.236e+00,-0.1,2.928
1.240e+00,-0.02,2.888
1.244e+00,-0.1,2.888
1.248e+00,0.06,2.868
1.252e+00,-0.02,2.868
1.256e+00,-0.02,2.828
1.260e+00,-0.02,2.848
1.264e+00,-0.02,2.828
1.268e+00,0.06,2.848
1.272e+00,0.06,2.868
1.276e+00,-0.1,2.828
1.280e+00,-0.02,2.888
1.284e+00,-0.02,2.848
1.288e+00,-0.02,2.808
1.292e+00,-0.1,2.828
1.296e+00,-0.02,2.828
1.300e+00,-0.02,2.788
1.304e+00,-0.1,2.808
1.308e+00,-0.02,2.828
1.312e+00,-0.02,2.808
1.316e+00,-0.02,2.808
1.320e+00,0.06,2.828
1.324e+00,0.06,2.788
1.328e+00,-0.02,2.848
1.332e+00,0.06,2.788
1.336e+00,0.06,2.788
1.340e+00,-0.02,2.788
1.344e+00,0.06,2.768
1.348e+00,-0.02,2.768
1.352e+00,-0.02,2.748
1.356e+00,-0.02,2.768
1.360e+00,-0.02,2.748
1.364e+00,-0.02,2.788
1.368e+00,-0.02,2.708
1.372e+00,-0.02,2.748
1.376e+00,-0.02,2.708
1.380e+00,-0.02,2.768
1.384e+00,-0.02,2.728
1.388e+00,-0.02,2.748
1.392e+00,-0.02,2.708
1.396e+00,-0.02,2.708
1.400e+00,-0.1,2.728
1.404e+00,-0.02,2.728
1.408e+00,-0.02,2.708
1.412e+00,-0.02,2.728
1.416e+00,0.06,2.728
1.420e+00,-0.02,2.688
1.424e+00,-0.02,2.688
1.428e+00,-0.02,2.708
1.432e+00,-0.1,2.648
1.436e+00,-0.02,2.648
1.440e+00,-0.02,2.668
1.444e+00,-0.02,2.708
1.448e+00,-0.18,2.688
1.452e+00,-0.1,2.668
1.456e+00,-0.02,2.628
1.460e+00,-0.02,2.668
1.464e+00,-0.1,2.648
1.468e+00,0.06,2.628
1.472e+00,-0.1,2.648
1.476e+00,-0.1,2.588
1.480e+00,-0.02,2.628
1.484e+00,0.06,2.608
1.488e+00,-0.02,2.608
1.492e+00,0.06,2.628
1.496e+00,-0.02,2.648
1.500e+00,-0.02,2.608
1.504e+00,-0.02,2.548
1.508e+00,0.06,2.608
1.512e+00,0.06,2.608
1.516e+00,-0.02,2.568
1.520e+00,-0.02,2.608
1.524e+00,-0.02,2.608
1.528e+00,-0.1,2.608
1.532e+00,-0.02,2.568
1.536e+00,-0.1,2.568
1.540e+00,-0.1,2.568
1.544e+00,-0.02,2.568
1.548e+00,-0.02,2.588
1.552e+00,-0.02,2.568
