res/logs/swl/tek0007ALL.csv

Model,DPO3032
Firmware Version,2.16

Point Format,Y,
Horizontal Units,S,
Horizontal Scale,0.4,
Sample Interval,0.004,
Record Length,1000,
Gating,0.0% to 100.0%,0.0% to 100.0%
Probe Attenuation,1,1
Vertical Units,V,V
Vertical Offset,-0.02,2.578
Vertical Scale,2,0.5
Label,IN,OUT
TIME,CH1,CH2
-2.000e+00,-0.02,2.568
-1.996e+00,0.14,2.548
-1.992e+00,-0.1,2.548
-1.988e+00,-0.02,2.548
-1.984e+00,-0.02,2.588
-1.980e+00,-0.02,2.548
-1.976e+00,0.06,2.508
-1.972e+00,-0.02,2.528
-1.968e+00,-0.02,2.528
-1.964e+00,-0.02,2.488
-1.960e+00,-0.02,2.508
-1.956e+00,-0.1,2.508
-1.952e+00,-0.1,2.468
-1.948e+00,-0.1,2.508
-1.944e+00,-0.02,2.488
-1.940e+00,-0.02,2.468
-1.936e+00,-0.02,2.508
-1.932e+00,-0.02,2.468
-1.928e+00,-0.02,2.428
-1.924e+00,-0.02,2.508
-1.920e+00,-0.02,2.468
-1.916e+00,-0.02,2.428
-1.912e+00,-0.02,2.428
-1.908e+00,-0.02,2.428
-1.904e+00,-0.02,2.448
-1.900e+00,-0.02,2.448
-1.896e+00,-0.02,2.388
-1.892e+00,-0.02,2.428
-1.888e+00,-0.1,2.428
-1.884e+00,-0.02,2.408
-1.880e+00,-0.02,2.388
-1.876e+00,0.06,2.388
-1.872e+00,-0.02,2.428
-1.868e+00,-0.02,2.368
-1.864e+00,-0.1,2.408
-1.860e+00,-0.02,2.388
-1.856e+00,0.06,2.368
-1.852e+00,-0.02,2.368
-1.848e+00,-0.02,2.368
-1.844e+00,-0.02,2.428
-1.840e+00,-0.02,2.348
-1.836e+00,0.06,2.348
-1.832e+00,-0.02,2.388
-1.828e+00,-0.02,2.328
-1.824e+00,-0.02,2.328
-1.820e+00,-0.1,2.328
-1.816e+00,-0.1,2.368
-1.812e+00,-0.1,2.348
-1.808e+00,-0.02,2.328
-1.804e+00,-0.1,2.348
-1.800e+00,-0.02,2.328
-1.796e+00,-0.02,2.308
-1.792e+00,-0.02,2.348
-1.788e+00,-0.02,2.328
-1.784e+00,-0.02,2.328
-1.780e+00,-0.02,2.308
-1.776e+00,-0.02,2.348
-1.772e+00,-0.02,2.308
-1.768e+00,-0.1,2.348
-1.764e+00,-0.1,2.288
-1.760e+00,-0.1,2.348
-1.756e+00,-0.02,2.328
-1.752e+00,-0.02,2.288
-1.748e+00,-0.02,2.348
-1.744e+00,-0.02,2.328
-1.740e+00,-0.02,2.288
-1.736e+00,-0.02,2.308
-1.732e+00,-0.02,2.308
-1.728e+00,-0.02,2.388
-1.724e+00,-0.02,2.308
-1.720e+00,-0.02,2.308
-1.716e+00,-0.02,2.308
-1.712e+00,0.06,2.348
-1.708e+00,-0.26,2.328
-1.704e+00,-0.02,2.288
-1.700e+00,0.06,2.328
-1.696e+00,-0.02,2.308
-1.692e+00,-0.02,2.328
-1.688e+00,0.06,2.308
-1.684e+00,-0.02,2.328
-1.680e+00,0.06,2.348
-1.676e+00,-0.02,2.308
-1.672e+00,-0.02,2.308
-1.668e+00,-0.02,2.308
-1.664e+00,-0.1,2.348
-1.660e+00,-0.1,2.288
-1.656e+00,-0.02,2.368
-1.652e+00,-0.1,2.308
-1.648e+00,-0.02,2.328
-1.644e+00,-0.02,2.308
-1.640e+00,-0.1,2.288
-1.636e+00,-0.02,2.288
-1.632e+00,-0.02,2.308
-1.628e+00,-0.02,2.328
-1.624e+00,0.06,2.328
-1.620e+00,-0.02,2.348
-1.616e+00,-0.02,2.328
-1.612e+00,-0.02,2.288
-1.608e+00,-0.02,2.308
-1.604e+00,-0.02,2.348
-1.600e+00,-0.02,2.348
-1.596e+00,-0.02,2.328
-1.592e+00,-0.02,2.368
-1.588e+00,-0.02,2.348
-1.584e+00,-0.02,2.348
-1.580e+00,-0.02,2.308
-1.576e+00,-0.02,2.388
-1.572e+00,-0.02,2.388
-1.568e+00,-0.1,2.368
-1.564e+00,-0.02,2.408
-1.560e+00,-0.02,2.348
-1.556e+00,-0.02,2.368
-1.552e+00,-0.02,2.388
-1.548e+00,-0.02,2.368
-1.544e+00,0.06,2.388
-1.540e+00,-0.02,2.368
-1.536e+00,0.06,2.388
-1.532e+00,-0.02,2.428
-1.528e+00,-0.1,2.408
-1.524e+00,-0.1,2.408
-1.520e+00,-0.1,2.428
-1.516e+00,-0.02,2.448
-1.512e+00,-0.02,2.428
-1.508e+00,-0.1,2.408
-1.504e+00,-0.02,2.428
-1.500e+00,-0.1,2.428
-1.496e+00,-0.1,2.468
-1.492e+00,-0.02,2.448
-1.488e+00,-0.02,2.448
-1.484e+00,-0.1,2.448
-1.480e+00,-0.02,2.448
-1.476e+00,-0.02,2.488
-1.472e+00,-0.1,2.468
-1.468e+00,-0.02,2.448
-1.464e+00,-0.02,2.488
-1.460e+00,-0.1,2.488
-1.456e+00,-0.1,2.488
-1.452e+00,-0.02,2.508
-1.448e+00,-0.02,2.488
-1.444e+00,-0.02,2.508
-1.440e+00,-0.02,2.548
-1.436e+00,0.06,2.528
-1.432e+00,-0.02,2.548
-1.428e+00,-0.02,2.548
-1.424e+00,-0.02,2.568
-1.420e+00,-0.1,2.548
-1.416e+00,-0.1,2.548
-1.412e+00,0.06,2.548
-1.408e+00,-0.02,2.548
-1.404e+00,0.06,2.628
-1.400e+00,-0.02,2.608
-1.396e+00,-0.02,2.568
-1.392e+00,-0.02,2.568
-1.388e+00,-0.02,2.588
-1.384e+00,-0.1,2.568
-1.380e+00,-0.02,2.608
-1.376e+00,-0.02,2.588
-1.372e+00,-0.1,2.568
-1.368e+00,-0.02,2.608
-1.364e+00,-0.02,2.568
-1.360e+00,-0.02,2.648
-1.356e+00,-0.02,2.628
-1.352e+00,-0.02,2.648
-1.348e+00,-0.02,2.628
-1.344e+00,-0.1,2.688
-1.340e+00,-0.02,2.648
-1.336e+00,-0.02,2.648
-1.332e+00,-0.02,2.688
-1.328e+00,-0.02,2.628
-1.324e+00,-0.1,2.688
-1.320e+00,-0.02,2.668
-1.316e+00,-0.02,2.668
-1.312e+00,0.06,2.708
-1.308e+00,-0.02,2.748
-1.304e+00,-0.02,2.688
-1.300e+00,-0.02,2.728
-1.296e+00,-0.02,2.748
-1.292e+00,0.06,2.708
-1.288e+00,0.06,2.748
-1.284e+00,-0.02,2.728
-1.280e+00,0.06,2.748
-1.276e+00,-0.1,2.768
-1.272e+00,0.06,2.768
-1.268e+00,-0.02,2.768
-1.264e+00,-0.1,2.788
-1.260e+00,-0.1,2.768
-1.256e+00,-0.1,2.788
-1.252e+00,-0.02,2.808
-1.248e+00,-0.1,2.768
-1.244e+00,-0.02,2.808
-1.240e+00,-0.02,2.828
-1.236e+00,-0.02,2.808
-1.232e+00,-0.02,2.808
-1.228e+00,-0.02,2.848
-1.224e+00,-0.02,2.868
-1.220e+00,-0.18,2.888
-1.216e+00,-0.02,2.868
-1.212e+00,0.06,2.848
-1.208e+00,-0.1,2.848
-1.204e+00,0.06,2.848
-1.200e+00,-0.26,2.908
-1.196e+00,-0.1,2.888
-1.192e+00,-0.02,2.828
-1.188e+00,-0.1,2.888
-1.184e+00,-0.02,2.888
-1.180e+00,-0.02,2.888
-1.176e+00,-0.02,2.928
-1.172e+00,-0.02,2.888
-1.168e+00,-0.02,2.908
-1.164e+00,-0.02,2.948
-1.160e+00,-0.02,2.928
-1.156e+00,-0.02,2.928
-1.152e+00,0.06,2.948
-1.148e+00,-0.02,2.908
-1.144e+00,-0.02,2.948
-1.140e+00,-0.1,2.948
-1.136e+00,0.06,2.888
-1.132e+00,-0.02,2.908
-1.128e+00,-0.02,2.928
-1.124e+00,-0.02,2.968
-1.120e+00,-0.02,2.908
-1.116e+00,-0.02,2.988
-1.112e+00,-0.02,2.948
-1.108e+00,0.06,2.928
-1.104e+00,0.06,2.948
-1.100e+00,-0.02,2.968
-1.096e+00,-0.02,2.968
-1.092e+00,0.06,2.948
-1.088e+00,-0.02,2.948
-1.084e+00,0.06,2.948
-1.080e+00,4.54,2.968
-1.076e+00,4.62,2.988
-1.072e+00,4.54,2.948
-1.068e+00,4.7,2.968
-1.064e+00,4.62,2.948
-1.060e+00,4.7,2.988
-1.056e+00,4.78,2.988
-1.052e+00,4.54,2.968
-1.048e+00,4.62,2.948
-1.044e+00,4.54,2.948
-1.040e+00,4.7,2.988
-1.036e+00,4.62,2.968
-1.032e+00,4.62,2.988
-1.028e+00,4.7,3.008
-1.024e+00,4.7,2.968
-1.020e+00,4.7,2.988
-1.016e+00,4.7,2.968
-1.012e+00,4.7,2.988
-1.008e+00,4.62,2.928
-1.004e+00,4.54,2.948
-1.000e-00,4.7,2.968
-9.960e-01,4.62,2.948
-9.920e-01,4.7,2.948
-9.880e-01,4.7,2.968
-9.840e-01,4.78,2.948
-9.800e-01,0.06,2.948
-9.760e-01,0.06,2.968
-9.720e-01,-0.02,3.008
-9.680e-01,0.06,2.928
-9.640e-01,-0.02,2.968
-9.600e-01,-0.02,2.948
-9.560e-01,-0.02,2.928
-9.520e-01,-0.1,2.948
-9.480e-01,-0.02,2.928
-9.440e-01,-0.02,2.968
-9.400e-01,-0.02,2.988
-9.360e-01,-0.02,2.928
-9.320e-01,-0.1,2.948
-9.280e-01,0.06,2.928
-9.240e-01,-0.02,2.948
-9.200e-01,0.06,2.908
-9.160e-01,-0.02,2.928
-9.120e-01,-0.02,2.928
-9.080e-01,-0.02,2.908
-9.040e-01,-0.02,2.888
-9.000e-01,-0.02,2.868
-8.960e-01,-0.02,2.888
-8.920e-01,-0.02,2.868
-8.880e-01,0.06,2.868
-8.840e-01,0.14,2.848
-8.800e-01,-0.02,2.888
-8.760e-01,-0.02,2.888
-8.720e-01,-0.02,2.828
-8.680e-01,-0.02,2.868
-8.640e-01,-0.02,2.848
-8.600e-01,-0.02,2.828
-8.560e-01,-0.02,2.868
-8.520e-01,-0.02,2.888
-8.480e-01,-0.1,2.848
-8.440e-01,-0.1,2.848
-8.400e-01,-0.02,2.808
-8.360e-01,-0.26,2.868
-8.320e-01,0.06,2.808
-8.280e-01,-0.02,2.828
-8.240e-01,-0.1,2.828
-8.200e-01,-0.02,2.808
-8.160e-01,-0.1,2.828
-8.120e-01,-0.02,2.828
-8.080e-01,-0.02,2.788
-8.040e-01,-0.02,2.788
-8.000e-01,-0.02,2.728
-7.960e-01,-0.02,2.788
-7.920e-01,-0.18,2.688
-7.880e-01,-0.02,2.728
-7.840e-01,-0.02,2.748
-7.800e-01,-0.02,2.768
-7.760e-01,0.14,2.728
-7.720e-01,-0.02,2.708
-7.680e-01,-0.1,2.708
-7.640e-01,0.06,2.688
-7.600e-01,-0.02,2.688
-7.560e-01,-0.1,2.708
-7.520e-01,-0.1,2.708
-7.480e-01,-0.02,2.708
-7.440e-01,-0.1,2.688
-7.400e-01,-0.02,2.668
-7.360e-01,-0.1,2.668
-7.320e-01,0.06,2.688
-7.280e-01,-0.1,2.668
-7.240e-01,-0.02,2.648
-7.200e-01,-0.1,2.608
-7.160e-01,-0.02,2.648
-7.120e-01,-0.02,2.628
-7.080e-01,-0.02,2.568
-7.040e-01,-0.02,2.628
-7.000e-01,-0.02,2.628
-6.960e-01,-0.1,2.588
-6.920e-01,-0.02,2.608
-6.880e-01,-0.02,2.608
-6.840e-01,-0.1,2.568
-6.800e-01,0.06,2.588
-6.760e-01,-0.1,2.568
-6.720e-01,-0.02,2.568
-6.680e-01,-0.18,2.568
-6.640e-01,-0.02,2.588
-6.600e-01,-0.1,2.588
-6.560e-01,-0.02,2.548
-6.520e-01,-0.02,2.528
-6.480e-01,-0.02,2.548
-6.440e-01,-0.02,2.508
-6.400e-01,0.06,2.548
-6.360e-01,-0.1,2.548
-6.320e-01,-0.02,2.548
-6.280e-01,0.06,2.508
-6.240e-01,-0.02,2.508
-6.200e-01,-0.02,2.488
-6.160e-01,0.06,2.488
-6.120e-01,-0.02,2.468
-6.080e-01,-0.02,2.468
-6.040e-01,-0.02,2.468
-6.000e-01,0.06,2.488
-5.960e-01,-0.02,2.488
-5.920e-01,-0.02,2.488
-5.880e-01,-0.1,2.468
-5.840e-01,-0.02,2.428
-5.800e-01,-0.1,2.468
-5.760e-01,-0.1,2.448
-5.720e-01,-0.1,2.448
-5.680e-01,-0.02,2.468
-5.640e-01,-0.02,2.428
-5.600e-01,-0.02,2.428
-5.560e-01,-0.02,2.408
-5.520e-01,-0.02,2.408
-5.480e-01,-0.02,2.408
-5.440e-01,-0.1,2.428
-5.400e-01,-0.02,2.368
-5.360e-01,-0.02,2.388
-5.320e-01,-0.02,2.408
-5.280e-01,0.06,2.408
-5.240e-01,-0.02,2.368
-5.200e-01,-0.1,2.388
-5.160e-01,-0.02,2.368
-5.120e-01,0.06,2.368
-5.080e-01,-0.02,2.368
-5.040e-01,-0.02,2.368
-5.000e-01,-0.02,2.368
-4.960e-01,-0.02,2.388
-4.920e-01,-0.02,2.368
-4.880e-01,-0.02,2.388
-4.840e-01,-0.02,2.348
-4.800e-01,-0.02,2.368
-4.760e-01,-0.02,2.328
-4.720e-01,-0.02,2.368
-4.680e-01,-0.02,2.348
-4.640e-01,-0.1,2.308
-4.600e-01,-0.1,2.348
-4.560e-01,-0.02,2.328
-4.520e-01,-0.02,2.348
-4.480e-01,-0.02,2.348
-4.440e-01,-0.02,2.328
-4.400e-01,-0.02,2.348
-4.360e-01,-0.26,2.308
-4.320e-01,-0.18,2.328
-4.280e-01,-0.02,2.348
-4.240e-01,-0.02,2.288
-4.200e-01,-0.02,2.308
-4.160e-01,-0.02,2.348
-4.120e-01,-0.02,2.288
-4.080e-01,-0.02,2.348
-4.040e-01,-0.1,2.348
-4.000e-01,-0.02,2.308
-3.960e-01,0.06,2.348
-3.920e-01,-0.1,2.308
-3.880e-01,-0.02,2.328
-3.840e-01,-0.02,2.328
-3.800e-01,-0.02,2.308
-3.760e-01,-0.1,2.308
-3.720e-01,-0.02,2.328
-3.680e-01,-0.02,2.328
-3.640e-01,-0.1,2.328
-3.600e-01,-0.1,2.348
-3.560e-01,-0.1,2.328
-3.520e-01,0.06,2.328
-3.480e-01,-0.1,2.288
-3.440e-01,-0.02,2.328
-3.400e-01,-0.18,2.308
-3.360e-01,0.06,2.308
-3.320e-01,-0.02,2.308
-3.280e-01,-0.1,2.328
-3.240e-01,-0.02,2.348
-3.200e-01,-0.02,2.308
-3.160e-01,-0.02,2.308
-3.120e-01,-0.02,2.228
-3.080e-01,-0.02,2.268
-3.040e-01,-0.1,2.328
-3.000e-01,-0.02,2.308
-2.960e-01,-0.02,2.288
-2.920e-01,-0.02,2.328
-2.880e-01,-0.1,2.368
-2.840e-01,-0.02,2.328
-2.800e-01,-0.02,2.328
-2.760e-01,-0.02,2.368
-2.720e-01,-0.02,2.348
-2.680e-01,-0.02,2.368
-2.640e-01,0.06,2.328
-2.600e-01,-0.02,2.328
-2.560e-01,-0.02,2.388
-2.520e-01,-0.02,2.328
-2.480e-01,-0.1,2.348
-2.440e-01,-0.1,2.348
-2.400e-01,-0.02,2.348
-2.360e-01,-0.1,2.348
-2.320e-01,-0.02,2.388
-2.280e-01,-0.02,2.348
-2.240e-01,-0.02,2.348
-2.200e-01,-0.1,2.368
-2.160e-01,-0.1,2.328
-2.120e-01,-0.1,2.388
-2.080e-01,-0.1,2.388
-2.040e-01,-0.02,2.408
-2.000e-01,0.06,2.368
-1.960e-01,-0.1,2.428
-1.920e-01,-0.1,2.408
-1.880e-01,0.06,2.388
-1.840e-01,-0.02,2.368
-1.800e-01,0.06,2.428
-1.760e-01,-0.02,2.448
-1.720e-01,-0.02,2.428
-1.680e-01,-0.1,2.448
-1.640e-01,-0.02,2.448
-1.600e-01,-0.02,2.488
-1.560e-01,-0.1,2.428
-1.520e-01,-0.02,2.408
-1.480e-01,-0.02,2.428
-1.440e-01,-0.02,2.468
-1.400e-01,-0.1,2.468
-1.360e-01,-0.1,2.468
-1.320e-01,-0.02,2.468
-1.280e-01,-0.02,2.488
-1.240e-01,-0.02,2.488
-1.200e-01,-0.1,2.508
-1.160e-01,-0.18,2.488
-1.120e-01,-0.02,2.488
-1.080e-01,-0.02,2.548
-1.040e-01,-0.02,2.528
-1.000e-01,-0.1,2.508
-9.600e-02,-0.02,2.548
-9.200e-02,-0.02,2.548
-8.800e-02,-0.02,2.548
-8.400e-02,-0.02,2.528
-8.000e-02,-0.02,2.488
-7.600e-02,-0.02,2.568
-7.200e-02,-0.1,2.548
-6.800e-02,-0.1,2.568
-6.400e-02,-0.02,2.548
-6.000e-02,-0.02,2.588
-5.600e-02,-0.1,2.568
-5.200e-02,-0.02,2.548
-4.800e-02,-0.02,2.588
-4.400e-02,-0.02,2.608
-4.000e-02,-0.02,2.628
-3.600e-02,-0.1,2.628
-3.200e-02,-0.1,2.608
-2.800e-02,0.06,2.628
-2.400e-02,-0.02,2.628
-2.000e-02,-0.02,2.588
-1.600e-02,-0.1,2.648
-1.200e-02,-0.02,2.668
-8.000e-03,-0.02,2.688
-4.000e-03,-0.02,2.628
1.749e-15,-0.1,2.688
4.000e-03,-0.02,2.668
8.000e-03,-0.02,2.668
1.200e-02,-0.02,2.668
1.600e-02,-0.02,2.688
2.000e-02,-0.1,2.688
2.400e-02,-0.02,2.688
2.800e-02,-0.02,2.728
3.200e-02,-0.02,2.728
3.600e-02,-0.02,2.728
4.000e-02,0.06,2.748
4.400e-02,-0.02,2.728
4.800e-02,-0.1,2.728
5.200e-02,-0.02,2.728
5.600e-02,-0.02,2.748
6.000e-02,-0.02,2.748
6.400e-02,-0.1,2.768
6.800e-02,-0.02,2.788
7.200e-02,-0.1,2.808
7.600e-02,-0.02,2.788
8.000e-02,-0.1,2.788
8.400e-02,-0.02,2.768
8.800e-02,-0.1,2.808
9.200e-02,-0.02,2.788
9.600e-02,0.06,2.788
1.000e-01,-0.02,2.808
1.040e-01,-0.1,2.808
1.080e-01,-0.02,2.808
1.120e-01,-0.02,2.868
1.160e-01,-0.02,2.868
1.200e-01,-0.02,2.808
1.240e-01,-0.02,2.868
1.280e-01,-0.02,2.848
1.320e-01,-0.02,2.868
1.360e-01,-0.1,2.828
1.400e-01,-0.02,2.868
1.440e-01,-0.02,2.868
1.480e-01,-0.02,2.868
1.520e-01,0.06,2.928
1.560e-01,-0.02,2.888
1.600e-01,-0.02,2.868
1.640e-01,-0.02,2.908
1.680e-01,0.14,2.888
1.720e-01,-0.02,2.908
1.760e-01,-0.02,2.908
1.800e-01,0.06,2.928
1.840e-01,-0.02,2.948
1.880e-01,-0.02,2.928
1.920e-01,0.06,2.968
1.960e-01,-0.02,2.928
2.000e-01,-0.02,2.908
2.040e-01,-0.02,2.908
2.080e-01,-0.02,2.928
2.120e-01,-0.02,2.948
2.160e-01,0.06,2.928
2.200e-01,-0.02,2.948
2.240e-01,-0.02,2.948
2.280e-01,-0.02,2.948
2.320e-01,-0.02,2.968
2.360e-01,-0.02,2.928
2.400e-01,-0.02,2.948
2.440e-01,-0.02,2.988
2.480e-01,-0.1,2.948
2.520e-01,-0.1,2.928
2.560e-01,-0.1,2.948
2.600e-01,4.62,2.988
2.640e-01,4.62,2.928
2.680e-01,4.78,2.928
2.720e-01,4.78,2.968
2.760e-01,4.62,2.948
2.800e-01,4.7,2.968
2.840e-01,4.7,2.948
2.880e-01,4.78,2.968
2.920e-01,4.7,2.988
2.960e-01,4.62,3.008
3.000e-01,4.7,2.968
3.040e-01,4.7,3.008
3.080e-01,4.62,2.988
3.120e-01,4.7,2.968
3.160e-01,4.7,3.008
3.200e-01,4.62,2.928
3.240e-01,4.62,2.948
3.280e-01,4.7,2.968
3.320e-01,4.7,2.968
3.360e-01,4.54,2.948
3.400e-01,4.7,2.968
3.440e-01,4.62,2.948
3.480e-01,4.54,2.988
3.520e-01,4.54,2.968
3.560e-01,-0.02,2.928
3.600e-01,-0.02,2.948
3.640e-01,-0.1,2.968
3.680e-01,-0.1,2.948
3.720e-01,-0.02,2.948
3.760e-01,-0.18,2.928
3.800e-01,-0.1,2.928
3.840e-01,-0.02,2.908
3.880e-01,-0.1,2.968
3.920e-01,-0.1,2.908
3.960e-01,-0.02,2.948
4.000e-01,-0.1,2.928
4.040e-01,-0.02,2.928
4.080e-01,-0.1,2.948
4.120e-01,-0.02,2.908
4.160e-01,-0.02,2.948
4.200e-01,-0.1,2.928
4.240e-01,0.06,2.928
4.280e-01,-0.02,2.888
4.320e-01,-0.1,2.948
4.360e-01,-0.02,2.888
4.400e-01,-0.02,2.928
4.440e-01,0.06,2.888
4.480e-01,-0.02,2.868
4.520e-01,-0.02,2.868
4.560e-01,-0.02,2.908
4.600e-01,-0.18,2.888
4.640e-01,-0.1,2.908
4.680e-01,-0.18,2.868
4.720e-01,-0.02,2.888
4.760e-01,-0.02,2.888
4.800e-01,-0.02,2.888
4.840e-01,-0.02,2.868
4.880e-01,0.22,2.868
4.920e-01,0.06,2.848
4.960e-01,-0.18,2.828
5.000e-01,-0.02,2.828
5.040e-01,-0.02,2.808
5.080e-01,-0.02,2.808
5.120e-01,-0.1,2.788
5.160e-01,-0.02,2.828
5.200e-01,-0.02,2.848
5.240e-01,-0.02,2.748
5.280e-01,-0.02,2.828
5.320e-01,-0.18,2.788
5.360e-01,-0.02,2.788
5.400e-01,-0.02,2.788
5.440e-01,0.14,2.788
5.480e-01,-0.02,2.788
5.520e-01,0.06,2.728
5.560e-01,-0.02,2.748
5.600e-01,0.14,2.708
5.640e-01,0.06,2.768
5.680e-01,-0.02,2.708
5.720e-01,-0.1,2.728
5.760e-01,-0.02,2.708
5.800e-01,-0.02,2.708
5.840e-01,-0.02,2.748
5.880e-01,-0.02,2.728
5.920e-01,-0.02,2.688
5.960e-01,-0.02,2.668
6.000e-01,-0.1,2.688
6.040e-01,-0.02,2.708
6.080e-01,-0.1,2.648
6.120e-01,-0.02,2.648
6.160e-01,0.06,2.628
6.200e-01,-0.02,2.628
6.240e-01,-0.02,2.588
6.280e-01,-0.02,2.608
6.320e-01,-0.02,2.608
6.360e-01,-0.1,2.608
6.400e-01,-0.1,2.608
6.440e-01,-0.02,2.608
6.480e-01,-0.1,2.588
6.520e-01,-0.1,2.608
6.560e-01,-0.02,2.568
6.600e-01,-0.02,2.568
6.640e-01,-0.02,2.588
6.680e-01,-0.02,2.568
6.720e-01,-0.02,2.568
6.760e-01,-0.1,2.608
6.800e-01,-0.02,2.548
6.840e-01,-0.02,2.548
6.880e-01,-0.02,2.568
6.920e-01,-0.02,2.568
6.960e-01,-0.02,2.488
7.000e-01,-0.1,2.548
7.040e-01,-0.02,2.508
7.080e-01,-0.02,2.528
7.120e-01,-0.02,2.548
7.160e-01,-0.02,2.528
7.200e-01,-0.02,2.488
7.240e-01,-0.02,2.508
7.280e-01,0.06,2.508
7.320e-01,-0.02,2.468
7.360e-01,-0.02,2.488
7.400e-01,-0.02,2.468
7.440e-01,-0.02,2.468
7.480e-01,-0.02,2.488
7.520e-01,-0.02,2.468
7.560e-01,-0.02,2.428
7.600e-01,-0.02,2.408
7.640e-01,-0.02,2.448
7.680e-01,-0.02,2.448
7.720e-01,-0.1,2.488
7.760e-01,-0.1,2.428
7.800e-01,-0.02,2.428
7.840e-01,-0.02,2.408
7.880e-01,-0.1,2.408
7.920e-01,-0.02,2.368
7.960e-01,-0.1,2.428
8.000e-01,-0.1,2.428
8.040e-01,-0.02,2.428
8.080e-01,-0.02,2.388
8.120e-01,-0.02,2.408
8.160e-01,-0.02,2.348
8.200e-01,-0.02,2.388
8.240e-01,-0.1,2.388
8.280e-01,-0.02,2.368
8.320e-01,-0.02,2.328
8.360e-01,-0.02,2.368
8.400e-01,-0.02,2.368
8.440e-01,-0.02,2.368
8.480e-01,-0.1,2.368
8.520e-01,-0.02,2.328
8.560e-01,-0.1,2.348
8.600e-01,-0.02,2.348
8.640e-01,-0.02,2.388
8.680e-01,-0.1,2.368
8.720e-01,-0.02,2.348
8.760e-01,-0.02,2.328
8.800e-01,-0.02,2.328
8.840e-01,-0.02,2.328
8.880e-01,-0.02,2.368
8.920e-01,-0.02,2.388
8.960e-01,-0.02,2.288
9.000e-01,-0.02,2.308
9.040e-01,-0.1,2.328
9.080e-01,-0.1,2.328
9.120e-01,-0.02,2.328
9.160e-01,-0.02,2.308
9.200e-01,-0.02,2.308
9.240e-01,-0.02,2.328
9.280e-01,0.06,2.288
9.320e-01,-0.02,2.288
9.360e-01,-0.02,2.288
9.400e-01,-0.02,2.328
9.440e-01,-0.02,2.308
9.480e-01,0.06,2.308
9.520e-01,-0.02,2.328
9.560e-01,-0.02,2.308
9.600e-01,-0.02,2.348
9.640e-01,-0.1,2.288
9.680e-01,-0.1,2.288
9.720e-01,-0.1,2.308
9.760e-01,-0.1,2.348
9.800e-01,-0.1,2.308
9.840e-01,-0.1,2.308
9.880e-01,-0.02,2.308
9.920e-01,-0.02,2.308
9.960e-01,0.06,2.268
1.000e+00,-0.02,2.248
1.004e+00,-0.02,2.288
1.008e+00,0.06,2.308
1.012e+00,-0.02,2.288
1.016e+00,-0.02,2.288
1.020e+00,-0.1,2.288
1.024e+00,-0.02,2.348
1.028e+00,-0.02,2.328
1.032e+00,0.06,2.348
1.036e+00,0.06,2.308
1.040e+00,-0.18,2.328
1.044e+00,-0.18,2.328
1.048e+00,-0.02,2.328
1.052e+00,-0.02,2.308
1.056e+00,-0.1,2.328
1.060e+00,-0.02,2.308
1.064e+00,-0.02,2.328
1.068e+00,-0.1,2.308
1.072e+00,-0.02,2.308
1.076e+00,-0.02,2.348
1.080e+00,-0.02,2.328
1.084e+00,-0.02,2.348
1.088e+00,-0.02,2.328
1.092e+00,-0.02,2.328
1.096e+00,-0.1,2.328
1.100e+00,-0.02,2.368
1.104e+00,-0.02,2.368
1.108e+00,-0.02,2.368
1.112e+00,-0.02,2.368
1.116e+00,-0.02,2.328
1.120e+00,-0.1,2.348
1.124e+00,-0.02,2.368
1.128e+00,0.06,2.408
1.132e+00,0.06,2.428
1.136e+00,-0.1,2.368
1.140e+00,-0.02,2.388
1.144e+00,-0.1,2.348
1.148e+00,-0.02,2.408
1.152e+00,-0.02,2.388
1.156e+00,-0.02,2.368
1.160e+00,-0.02,2.388
1.164e+00,0.06,2.408
1.168e+00,-0.02,2.428
1.172e+00,-0.02,2.408
1.176e+00,-0.02,2.448
1.180e+00,-0.02,2.448
1.184e+00,-0.02,2.428
1.188e+00,0.14,2.468
1.192e+00,-0.02,2.488
1.196e+00,-0.02,2.468
1.200e+00,-0.02,2.488
1.204e+00,-0.1,2.468
1.208e+00,-0.02,2.488
1.212e+00,-0.02,2.468
1.216e+00,-0.1,2.528
1.220e+00,-0.02,2.508
1.224e+00,-0.02,2.508
1.228e+00,-0.1,2.508
1.232e+00,-0.1,2.508
1.236e+00,-0.18,2.528
1.240e+00,-0.02,2.528
1.244e+00,-0.02,2.508
1.248e+00,-0.1,2.488
1.252e+00,0.06,2.548
1.256e+00,-0.02,2.568
1.260e+00,0.06,2.548
1.264e+00,-0.02,2.568
1.268e+00,-0.02,2.568
1.272e+00,-0.02,2.548
1.276e+00,-0.02,2.568
1.280e+00,-0.02,2.568
1.284e+00,-0.02,2.608
1.288e+00,-0.02,2.608
1.292e+00,0.06,2.588
1.296e+00,-0.02,2.628
1.300e+00,-0.02,2.588
1.304e+00,-0.02,2.588
1.308e+00,-0.02,2.608
1.312e+00,-0.02,2.628
1.316e+00,-0.02,2.608
1.320e+00,-0.02,2.608
1.324e+00,-0.02,2.648
1.328e+00,-0.02,2.648
1.332e+00,-0.1,2.668
1.336e+00,0.14,2.648
1.340e+00,0.06,2.668
1.344e+00,0.06,2.648
1.348e+00,-0.02,2.688
1.352e+00,0.06,2.648
1.356e+00,-0.02,2.688
1.360e+00,-0.02,2.688
1.364e+00,-0.02,2.748
1.368e+00,-0.02,2.748
1.372e+00,-0.02,2.668
1.376e+00,-0.02,2.708
1.380e+00,0.06,2.768
1.384e+00,-0.02,2.708
1.388e+00,-0.1,2.768
1.392e+00,-0.02,2.708
1.396e+00,-0.02,2.748
1.400e+00,-0.02,2.728
1.404e+00,-0.1,2.788
1.408e+00,-0.1,2.788
1.412e+00,0.06,2.748
1.416e+00,-0.02,2.768
1.420e+00,-0.1,2.768
1.424e+00,-0.02,2.788
1.428e+00,-0.02,2.788
1.432e+00,-0.02,2.788
1.436e+00,-0.02,2.808
1.440e+00,-0.02,2.828
1.444e+00,-0.1,2.848
1.448e+00,0.06,2.848
1.452e+00,-0.02,2.848
1.456e+00,-0.1,2.848
1.460e+00,-0.02,2.828
1.464e+00,0.14,2.868
1.468e+00,-0.02,2.848
1.472e+00,-0.1,2.848
1.476e+00,-0.02,2.868
1.480e+00,-0.1,2.888
1.484e+00,0.14,2.868
1.488e+00,-0.1,2.868
1.492e+00,-0.02,2.848
1.496e+00,-0.02,2.888
1.500e+00,-0.1,2.928
1.504e+00,0.06,2.888
1.508e+00,-0.02,2.928
1.512e+00,-0.02,2.908
1.516e+00,-0.02,2.888
1.520e+00,0.06,2.908
1.524e+00,-0.1,2.908
1.528e+00,-0.02,2.908
1.532e+00,0.06,2.908
1.536e+00,-0.18,2.908
1.540e+00,-0.02,2.928
1.544e+00,-0.02,2.928
1.548e+00,-0.1,2.948
