res/logs/tek0005ALL.csv

Model,DPO3032
Firmware Version,2.16

Point Format,Y,
Horizontal Units,S,
Horizontal Scale,0.4,
Sample Interval,0.004,
Record Length,1000,
Gating,0.0% to 100.0%,0.0% to 100.0%
Probe Attenuation,1,1
Vertical Units,V,V
Vertical Offset,-0.02,2.578
Vertical Scale,2,0.2
Label,IN,OUT
TIME,CH1,CH2
-2.000e+00,-0.02,2.334
-1.996e+00,-0.1,2.318
-1.992e+00,-0.02,2.294
-1.988e+00,-0.02,2.342
-1.984e+00,-0.1,2.334
-1.980e+00,0.06,2.318
-1.976e+00,-0.02,2.342
-1.972e+00,-0.02,2.358
-1.968e+00,-0.02,2.358
-1.964e+00,-0.1,2.358
-1.960e+00,-0.02,2.358
-1.956e+00,-0.02,2.39
-1.952e+00,-0.1,2.366
-1.948e+00,-0.02,2.398
-1.944e+00,-0.02,2.398
-1.940e+00,-0.02,2.374
-1.936e+00,-0.02,2.422
-1.932e+00,-0.02,2.39
-1.928e+00,-0.18,2.406
-1.924e+00,-0.02,2.39
-1.920e+00,-0.02,2.406
-1.916e+00,-0.1,2.446
-1.912e+00,-0.1,2.446
-1.908e+00,-0.02,2.43
-1.904e+00,-0.18,2.462
-1.900e+00,-0.02,2.478
-1.896e+00,0.06,2.47
-1.892e+00,-0.1,2.462
-1.888e+00,-0.02,2.478
-1.884e+00,-0.02,2.494
-1.880e+00,-0.02,2.47
-1.876e+00,-0.02,2.494
-1.872e+00,-0.1,2.502
-1.868e+00,-0.02,2.526
-1.864e+00,0.06,2.518
-1.860e+00,-0.1,2.526
-1.856e+00,-0.1,2.542
-1.852e+00,0.06,2.518
-1.848e+00,-0.02,2.534
-1.844e+00,-0.02,2.566
-1.840e+00,0.06,2.67
-1.836e+00,-0.02,2.574
-1.832e+00,-0.02,2.574
-1.828e+00,0.06,2.558
-1.824e+00,-0.02,2.574
-1.820e+00,-0.02,2.574
-1.816e+00,-0.1,2.59
-1.812e+00,-0.02,2.614
-1.808e+00,-0.02,2.614
-1.804e+00,-0.02,2.606
-1.800e+00,-0.02,2.598
-1.796e+00,-0.02,2.622
-1.792e+00,-0.1,2.63
-1.788e+00,-0.02,2.63
-1.784e+00,-0.02,2.662
-1.780e+00,-0.18,2.678
-1.776e+00,-0.1,2.662
-1.772e+00,-0.1,2.686
-1.768e+00,-0.02,2.67
-1.764e+00,0.06,2.694
-1.760e+00,-0.18,2.678
-1.756e+00,0.06,2.686
-1.752e+00,-0.02,2.726
-1.748e+00,-0.02,2.71
-1.744e+00,-0.02,2.718
-1.740e+00,-0.02,2.726
-1.736e+00,-0.1,2.758
-1.732e+00,-0.02,2.758
-1.728e+00,-0.02,2.75
-1.724e+00,-0.02,2.742
-1.720e+00,-0.02,2.782
-1.716e+00,-0.02,2.766
-1.712e+00,-0.02,2.758
-1.708e+00,-0.02,2.79
-1.704e+00,0.06,2.79
-1.700e+00,-0.1,2.774
-1.696e+00,-0.18,2.822
-1.692e+00,-0.02,2.822
-1.688e+00,-0.02,2.814
-1.684e+00,-0.02,2.806
-1.680e+00,-0.18,2.814
-1.676e+00,-0.02,2.838
-1.672e+00,-0.02,2.846
-1.668e+00,-0.02,2.83
-1.664e+00,-0.02,2.854
-1.660e+00,0.06,2.83
-1.656e+00,-0.02,2.846
-1.652e+00,-0.02,2.87
-1.648e+00,-0.1,2.854
-1.644e+00,-0.02,2.87
-1.640e+00,-0.02,2.878
-1.636e+00,-0.02,2.886
-1.632e+00,-0.02,2.862
-1.628e+00,-0.02,2.878
-1.624e+00,0.06,2.862
-1.620e+00,-0.1,2.886
-1.616e+00,-0.02,2.878
-1.612e+00,-0.02,2.918
-1.608e+00,0.06,2.902
-1.604e+00,-0.02,2.91
-1.600e+00,-0.02,2.886
-1.596e+00,-0.02,2.878
-1.592e+00,-0.02,2.91
-1.588e+00,-0.02,2.926
-1.584e+00,-0.1,2.894
-1.580e+00,-0.1,2.918
-1.576e+00,-0.02,2.91
-1.572e+00,-0.02,2.91
-1.568e+00,4.54,2.926
-1.564e+00,4.7,2.91
-1.560e+00,4.7,2.926
-1.556e+00,4.78,2.95
-1.552e+00,4.78,2.95
-1.548e+00,4.7,2.958
-1.544e+00,4.7,2.934
-1.540e+00,4.7,2.926
-1.536e+00,4.62,2.942
-1.532e+00,4.78,2.942
-1.528e+00,4.78,2.926
-1.524e+00,4.62,2.942
-1.520e+00,4.7,2.918
-1.516e+00,4.7,2.942
-1.512e+00,4.62,2.95
-1.508e+00,4.78,2.91
-1.504e+00,4.78,2.934
-1.500e+00,4.7,2.926
-1.496e+00,4.7,2.942
-1.492e+00,4.7,2.91
-1.488e+00,4.7,2.934
-1.484e+00,4.62,2.926
-1.480e+00,4.7,2.902
-1.476e+00,0.06,2.894
-1.472e+00,-0.02,2.902
-1.468e+00,-0.02,2.918
-1.464e+00,-0.02,2.902
-1.460e+00,-0.1,2.91
-1.456e+00,-0.02,2.918
-1.452e+00,-0.02,2.942
-1.448e+00,-0.02,2.894
-1.444e+00,-0.02,2.902
-1.440e+00,-0.02,2.87
-1.436e+00,0.06,2.926
-1.432e+00,-0.02,2.926
-1.428e+00,-0.02,2.886
-1.424e+00,-0.02,2.902
-1.420e+00,-0.18,2.886
-1.416e+00,0.06,2.878
-1.412e+00,-0.1,2.878
-1.408e+00,-0.02,2.87
-1.404e+00,-0.02,2.87
-1.400e+00,-0.02,2.854
-1.396e+00,-0.1,2.886
-1.392e+00,-0.02,2.87
-1.388e+00,-0.1,2.846
-1.384e+00,-0.02,2.83
-1.380e+00,-0.02,2.846
-1.376e+00,-0.02,2.83
-1.372e+00,-0.1,2.83
-1.368e+00,-0.1,2.838
-1.364e+00,-0.02,2.838
-1.360e+00,-0.02,2.806
-1.356e+00,-0.02,2.79
-1.352e+00,-0.02,2.798
-1.348e+00,-0.02,2.806
-1.344e+00,-0.02,2.798
-1.340e+00,-0.02,2.806
-1.336e+00,-0.02,2.798
-1.332e+00,-0.02,2.758
-1.328e+00,-0.02,2.766
-1.324e+00,-0.18,2.798
-1.320e+00,-0.02,2.742
-1.316e+00,-0.02,2.774
-1.312e+00,-0.02,2.742
-1.308e+00,-0.02,2.726
-1.304e+00,0.06,2.742
-1.300e+00,-0.02,2.718
-1.296e+00,-0.02,2.694
-1.292e+00,-0.02,2.686
-1.288e+00,-0.02,2.686
-1.284e+00,-0.02,2.678
-1.280e+00,-0.02,2.67
-1.276e+00,-0.02,2.67
-1.272e+00,-0.02,2.694
-1.268e+00,0.06,2.654
-1.264e+00,-0.02,2.646
-1.260e+00,-0.02,2.67
-1.256e+00,-0.02,2.646
-1.252e+00,-0.02,2.654
-1.248e+00,-0.02,2.63
-1.244e+00,-0.02,2.622
-1.240e+00,-0.18,2.614
-1.236e+00,-0.02,2.59
-1.232e+00,-0.1,2.598
-1.228e+00,-0.02,2.598
-1.224e+00,-0.02,2.606
-1.220e+00,0.06,2.582
-1.216e+00,-0.02,2.566
-1.212e+00,-0.02,2.566
-1.208e+00,-0.02,2.55
-1.204e+00,0.06,2.566
-1.200e+00,-0.1,2.542
-1.196e+00,-0.02,2.542
-1.192e+00,-0.1,2.55
-1.188e+00,-0.02,2.526
-1.184e+00,-0.02,2.526
-1.180e+00,0.06,2.51
-1.176e+00,-0.1,2.502
-1.172e+00,-0.02,2.51
-1.168e+00,-0.02,2.47
-1.164e+00,-0.02,2.47
-1.160e+00,-0.02,2.454
-1.156e+00,0.06,2.462
-1.152e+00,-0.02,2.47
-1.148e+00,-0.02,2.462
-1.144e+00,-0.18,2.446
-1.140e+00,-0.02,2.454
-1.136e+00,0.06,2.43
-1.132e+00,-0.02,2.414
-1.128e+00,-0.02,2.446
-1.124e+00,-0.02,2.422
-1.120e+00,-0.1,2.406
-1.116e+00,-0.02,2.406
-1.112e+00,-0.02,2.374
-1.108e+00,-0.1,2.406
-1.104e+00,-0.1,2.382
-1.100e+00,-0.1,2.398
-1.096e+00,0.06,2.366
-1.092e+00,-0.02,2.39
-1.088e+00,-0.18,2.342
-1.084e+00,0.06,2.366
-1.080e+00,0.06,2.366
-1.076e+00,-0.1,2.366
-1.072e+00,-0.02,2.342
-1.068e+00,-0.02,2.342
-1.064e+00,-0.02,2.334
-1.060e+00,-0.02,2.326
-1.056e+00,-0.1,2.326
-1.052e+00,-0.1,2.31
-1.048e+00,-0.02,2.334
-1.044e+00,0.06,2.326
-1.040e+00,-0.02,2.31
-1.036e+00,0.06,2.286
-1.032e+00,-0.18,2.31
-1.028e+00,0.06,2.302
-1.024e+00,-0.02,2.294
-1.020e+00,-0.02,2.302
-1.016e+00,-0.02,2.31
-1.012e+00,-0.02,2.294
-1.008e+00,-0.02,2.294
-1.004e+00,-0.02,2.302
-1.000e-00,-0.02,2.286
-9.960e-01,-0.02,2.278
-9.920e-01,-0.02,2.294
-9.880e-01,-0.1,2.302
-9.840e-01,-0.02,2.302
-9.800e-01,-0.02,2.294
-9.760e-01,-0.02,2.278
-9.720e-01,-0.02,2.262
-9.680e-01,-0.02,2.262
-9.640e-01,-0.02,2.254
-9.600e-01,-0.18,2.27
-9.560e-01,-0.02,2.254
-9.520e-01,-0.02,2.262
-9.480e-01,-0.02,2.262
-9.440e-01,-0.02,2.262
-9.400e-01,-0.02,2.286
-9.360e-01,-0.02,2.262
-9.320e-01,-0.1,2.262
-9.280e-01,-0.02,2.278
-9.240e-01,-0.02,2.214
-9.200e-01,-0.02,2.238
-9.160e-01,-0.1,2.246
-9.120e-01,-0.02,2.238
-9.080e-01,-0.02,2.262
-9.040e-01,-0.02,2.254
-9.000e-01,-0.1,2.238
-8.960e-01,-0.02,2.23
-8.920e-01,-0.02,2.262
-8.880e-01,-0.02,2.246
-8.840e-01,-0.02,2.238
-8.800e-01,-0.02,2.238
-8.760e-01,-0.02,2.254
-8.720e-01,-0.02,2.262
-8.680e-01,-0.02,2.27
-8.640e-01,0.14,2.27
-8.600e-01,-0.02,2.254
-8.560e-01,-0.02,2.254
-8.520e-01,-0.02,2.254
-8.480e-01,-0.02,2.246
-8.440e-01,0.06,2.262
-8.400e-01,0.14,2.262
-8.360e-01,0.06,2.246
-8.320e-01,-0.02,2.246
-8.280e-01,-0.1,2.27
-8.240e-01,-0.1,2.302
-8.200e-01,-0.02,2.278
-8.160e-01,-0.1,2.294
-8.120e-01,0.06,2.278
-8.080e-01,0.06,2.398
-8.040e-01,-0.1,2.27
-8.000e-01,-0.02,2.286
-7.960e-01,-0.02,2.302
-7.920e-01,-0.02,2.302
-7.880e-01,-0.02,2.294
-7.840e-01,-0.02,2.302
-7.800e-01,-0.1,2.334
-7.760e-01,0.06,2.31
-7.720e-01,-0.02,2.31
-7.680e-01,0.06,2.294
-7.640e-01,-0.02,2.318
-7.600e-01,-0.02,2.302
-7.560e-01,-0.02,2.318
-7.520e-01,-0.02,2.31
-7.480e-01,0.06,2.31
-7.440e-01,-0.1,2.31
-7.400e-01,-0.1,2.318
-7.360e-01,-0.02,2.342
-7.320e-01,-0.02,2.326
-7.280e-01,-0.02,2.342
-7.240e-01,-0.02,2.342
-7.200e-01,-0.02,2.334
-7.160e-01,-0.1,2.35
-7.120e-01,-0.02,2.366
-7.080e-01,0.06,2.358
-7.040e-01,-0.02,2.366
-7.000e-01,-0.02,2.382
-6.960e-01,-0.1,2.414
-6.920e-01,-0.1,2.406
-6.880e-01,-0.02,2.366
-6.840e-01,-0.02,2.398
-6.800e-01,-0.1,2.398
-6.760e-01,-0.02,2.43
-6.720e-01,-0.02,2.398
-6.680e-01,-0.02,2.43
-6.640e-01,-0.1,2.446
-6.600e-01,-0.02,2.438
-6.560e-01,-0.02,2.454
-6.520e-01,0.06,2.438
-6.480e-01,-0.1,2.478
-6.440e-01,-0.02,2.47
-6.400e-01,0.06,2.478
-6.360e-01,-0.02,2.478
-6.320e-01,-0.02,2.478
-6.280e-01,-0.02,2.462
-6.240e-01,-0.02,2.518
-6.200e-01,-0.02,2.502
-6.160e-01,0.06,2.518
-6.120e-01,-0.02,2.518
-6.080e-01,-0.1,2.55
-6.040e-01,-0.02,2.542
-6.000e-01,-0.02,2.534
-5.960e-01,-0.02,2.558
-5.920e-01,-0.1,2.55
-5.880e-01,-0.02,2.542
-5.840e-01,-0.1,2.558
-5.800e-01,0.06,2.558
-5.760e-01,0.06,2.566
-5.720e-01,-0.02,2.574
-5.680e-01,-0.02,2.574
-5.640e-01,-0.02,2.606
-5.600e-01,-0.02,2.598
-5.560e-01,-0.02,2.638
-5.520e-01,-0.02,2.606
-5.480e-01,0.06,2.622
-5.440e-01,-0.02,2.638
-5.400e-01,-0.1,2.646
-5.360e-01,0.14,2.63
-5.320e-01,-0.02,2.654
-5.280e-01,-0.02,2.646
-5.240e-01,-0.02,2.662
-5.200e-01,-0.1,2.662
-5.160e-01,-0.02,2.71
-5.120e-01,-0.02,2.686
-5.080e-01,-0.02,2.67
-5.040e-01,-0.02,2.702
-5.000e-01,-0.02,2.71
-4.960e-01,-0.02,2.718
-4.920e-01,-0.02,2.734
-4.880e-01,-0.02,2.734
-4.840e-01,0.06,2.702
-4.800e-01,-0.02,2.766
-4.760e-01,-0.02,2.734
-4.720e-01,-0.02,2.734
-4.680e-01,-0.02,2.782
-4.640e-01,-0.02,2.782
-4.600e-01,-0.02,2.782
-4.560e-01,0.06,2.79
-4.520e-01,-0.1,2.782
-4.480e-01,-0.02,2.79
-4.440e-01,0.06,2.798
-4.400e-01,-0.02,2.806
-4.360e-01,-0.1,2.798
-4.320e-01,-0.02,2.814
-4.280e-01,-0.02,2.838
-4.240e-01,-0.02,2.814
-4.200e-01,-0.02,2.846
-4.160e-01,-0.02,2.838
-4.120e-01,-0.02,2.862
-4.080e-01,0.06,2.838
-4.040e-01,-0.02,2.83
-4.000e-01,-0.02,2.87
-3.960e-01,-0.1,2.87
-3.920e-01,0.06,2.878
-3.880e-01,-0.02,2.854
-3.840e-01,0.06,2.894
-3.800e-01,-0.18,2.87
-3.760e-01,0.06,2.854
-3.720e-01,-0.02,2.894
-3.680e-01,-0.02,2.894
-3.640e-01,-0.02,2.894
-3.600e-01,-0.02,2.91
-3.560e-01,-0.02,2.918
-3.520e-01,-0.02,2.886
-3.480e-01,0.06,2.91
-3.440e-01,-0.02,2.91
-3.400e-01,-0.02,2.926
-3.360e-01,-0.02,2.918
-3.320e-01,-0.02,2.902
-3.280e-01,-0.02,2.902
-3.240e-01,-0.1,2.902
-3.200e-01,-0.02,2.934
-3.160e-01,4.46,2.91
-3.120e-01,4.62,2.91
-3.080e-01,4.54,2.918
-3.040e-01,4.7,2.942
-3.000e-01,4.62,2.934
-2.960e-01,4.62,2.958
-2.920e-01,4.78,2.934
-2.880e-01,4.7,2.934
-2.840e-01,4.62,2.95
-2.800e-01,4.62,2.934
-2.760e-01,4.62,2.942
-2.720e-01,4.7,2.926
-2.680e-01,4.7,2.926
-2.640e-01,4.62,2.926
-2.600e-01,4.62,2.942
-2.560e-01,4.54,2.95
-2.520e-01,4.62,2.894
-2.480e-01,4.7,2.91
-2.440e-01,4.54,2.918
-2.400e-01,4.78,2.926
-2.360e-01,4.54,2.91
-2.320e-01,4.62,2.934
-2.280e-01,4.7,2.918
-2.240e-01,0.14,2.91
-2.200e-01,-0.1,2.918
-2.160e-01,-0.1,2.918
-2.120e-01,0.06,2.918
-2.080e-01,-0.02,2.894
-2.040e-01,0.14,2.91
-2.000e-01,-0.02,2.91
-1.960e-01,-0.02,2.886
-1.920e-01,-0.1,2.918
-1.880e-01,-0.02,2.894
-1.840e-01,0.06,2.886
-1.800e-01,-0.02,2.886
-1.760e-01,-0.02,2.87
-1.720e-01,-0.02,2.894
-1.680e-01,-0.1,2.878
-1.640e-01,-0.1,2.894
-1.600e-01,0.06,2.878
-1.560e-01,-0.02,2.862
-1.520e-01,-0.02,2.862
-1.480e-01,-0.02,2.878
-1.440e-01,-0.1,2.846
-1.400e-01,-0.1,2.918
-1.360e-01,-0.02,2.83
-1.320e-01,-0.02,2.814
-1.280e-01,-0.02,2.838
-1.240e-01,-0.1,2.846
-1.200e-01,-0.02,2.79
-1.160e-01,-0.1,2.838
-1.120e-01,-0.02,2.822
-1.080e-01,-0.1,2.798
-1.040e-01,-0.02,2.806
-1.000e-01,-0.02,2.79
-9.600e-02,-0.02,2.79
-9.200e-02,-0.1,2.79
-8.800e-02,-0.1,2.798
-8.400e-02,-0.1,2.814
-8.000e-02,-0.02,2.742
-7.600e-02,-0.1,2.774
-7.200e-02,-0.02,2.75
-6.800e-02,-0.02,2.758
-6.400e-02,-0.02,2.742
-6.000e-02,-0.1,2.726
-5.600e-02,-0.02,2.718
-5.200e-02,-0.1,2.726
-4.800e-02,-0.1,2.718
-4.400e-02,-0.1,2.686
-4.000e-02,-0.02,2.718
-3.600e-02,0.06,2.702
-3.200e-02,-0.02,2.718
-2.800e-02,-0.02,2.694
-2.400e-02,-0.02,2.686
-2.000e-02,-0.1,2.694
-1.600e-02,-0.1,2.662
-1.200e-02,-0.02,2.67
-8.000e-03,-0.1,2.622
-4.000e-03,-0.1,2.654
1.749e-15,-0.02,2.638
4.000e-03,-0.02,2.598
8.000e-03,-0.02,2.63
1.200e-02,-0.02,2.622
1.600e-02,-0.1,2.622
2.000e-02,-0.1,2.606
2.400e-02,-0.02,2.606
2.800e-02,-0.02,2.606
3.200e-02,-0.02,2.574
3.600e-02,-0.02,2.574
4.000e-02,-0.1,2.574
4.400e-02,-0.1,2.542
4.800e-02,-0.02,2.558
5.200e-02,-0.02,2.526
5.600e-02,-0.02,2.518
6.000e-02,-0.1,2.51
6.400e-02,-0.02,2.494
6.800e-02,-0.02,2.518
7.200e-02,0.06,2.518
7.600e-02,-0.02,2.502
8.000e-02,-0.02,2.51
8.400e-02,-0.02,2.486
8.800e-02,-0.02,2.478
9.200e-02,0.06,2.47
9.600e-02,-0.02,2.462
1.000e-01,-0.02,2.478
1.040e-01,-0.02,2.438
1.080e-01,-0.02,2.446
1.120e-01,-0.02,2.454
1.160e-01,-0.02,2.422
1.200e-01,-0.02,2.422
1.240e-01,-0.02,2.422
1.280e-01,-0.02,2.422
1.320e-01,-0.02,2.414
1.360e-01,-0.02,2.39
1.400e-01,-0.02,2.414
1.440e-01,-0.02,2.382
1.480e-01,-0.02,2.39
1.520e-01,0.06,2.366
1.560e-01,-0.02,2.35
1.600e-01,-0.02,2.366
1.640e-01,-0.02,2.342
1.680e-01,-0.02,2.366
1.720e-01,-0.02,2.342
1.760e-01,-0.02,2.342
1.800e-01,-0.02,2.334
1.840e-01,-0.02,2.342
1.880e-01,0.06,2.334
1.920e-01,-0.02,2.334
1.960e-01,-0.02,2.334
2.000e-01,-0.02,2.31
2.040e-01,-0.02,2.31
2.080e-01,-0.02,2.302
2.120e-01,-0.02,2.318
2.160e-01,-0.02,2.294
2.200e-01,0.06,2.286
2.240e-01,-0.02,2.31
2.280e-01,-0.02,2.302
2.320e-01,-0.02,2.302
2.360e-01,-0.02,2.278
2.400e-01,-0.02,2.31
2.440e-01,-0.02,2.302
2.480e-01,-0.02,2.294
2.520e-01,-0.02,2.278
2.560e-01,0.06,2.262
2.600e-01,0.06,2.262
2.640e-01,0.06,2.254
2.680e-01,-0.02,2.278
2.720e-01,-0.02,2.27
2.760e-01,-0.02,2.294
2.800e-01,-0.1,2.278
2.840e-01,-0.18,2.254
2.880e-01,-0.1,2.278
2.920e-01,0.06,2.286
2.960e-01,0.06,2.262
3.000e-01,-0.02,2.246
3.040e-01,-0.02,2.254
3.080e-01,0.06,2.262
3.120e-01,-0.02,2.27
3.160e-01,-0.02,2.278
3.200e-01,-0.18,2.27
3.240e-01,-0.02,2.262
3.280e-01,0.14,2.238
3.320e-01,-0.02,2.262
3.360e-01,-0.02,2.238
3.400e-01,-0.18,2.254
3.440e-01,-0.02,2.238
3.480e-01,-0.02,2.23
3.520e-01,0.06,2.238
3.560e-01,-0.02,2.238
3.600e-01,0.06,2.246
3.640e-01,-0.02,2.262
3.680e-01,-0.02,2.246
3.720e-01,-0.02,2.238
3.760e-01,0.06,2.246
3.800e-01,-0.02,2.238
3.840e-01,-0.02,2.262
3.880e-01,-0.02,2.27
3.920e-01,0.06,2.278
3.960e-01,-0.1,2.254
4.000e-01,-0.1,2.278
4.040e-01,-0.02,2.27
4.080e-01,-0.02,2.27
4.120e-01,-0.02,2.278
4.160e-01,-0.02,2.262
4.200e-01,-0.02,2.254
4.240e-01,-0.02,2.27
4.280e-01,0.06,2.294
4.320e-01,-0.02,2.294
4.360e-01,-0.02,2.302
4.400e-01,-0.02,2.27
4.440e-01,-0.02,2.286
4.480e-01,-0.02,2.27
4.520e-01,-0.02,2.27
4.560e-01,-0.02,2.294
4.600e-01,-0.18,2.326
4.640e-01,-0.18,2.326
4.680e-01,-0.1,2.318
4.720e-01,-0.1,2.31
4.760e-01,-0.02,2.302
4.800e-01,-0.02,2.302
4.840e-01,-0.1,2.31
4.880e-01,-0.02,2.286
4.920e-01,-0.02,2.294
4.960e-01,-0.02,2.31
5.000e-01,-0.02,2.318
5.040e-01,-0.02,2.334
5.080e-01,-0.02,2.31
5.120e-01,-0.02,2.326
5.160e-01,-0.02,2.318
5.200e-01,-0.02,2.318
5.240e-01,-0.18,2.342
5.280e-01,-0.02,2.366
5.320e-01,-0.02,2.342
5.360e-01,-0.02,2.366
5.400e-01,0.06,2.366
5.440e-01,0.06,2.374
5.480e-01,-0.18,2.382
5.520e-01,-0.02,2.39
5.560e-01,-0.02,2.374
5.600e-01,-0.1,2.374
5.640e-01,-0.02,2.39
5.680e-01,0.06,2.414
5.720e-01,-0.02,2.422
5.760e-01,-0.02,2.43
5.800e-01,-0.02,2.39
5.840e-01,-0.02,2.438
5.880e-01,-0.02,2.422
5.920e-01,-0.02,2.43
5.960e-01,-0.1,2.438
6.000e-01,-0.1,2.462
6.040e-01,-0.02,2.47
6.080e-01,-0.02,2.454
6.120e-01,-0.02,2.478
6.160e-01,0.06,2.478
6.200e-01,-0.02,2.51
6.240e-01,-0.02,2.494
6.280e-01,-0.02,2.51
6.320e-01,-0.02,2.502
6.360e-01,-0.02,2.51
6.400e-01,-0.02,2.518
6.440e-01,-0.02,2.518
6.480e-01,-0.02,2.638
6.520e-01,-0.02,2.542
6.560e-01,-0.02,2.566
6.600e-01,-0.02,2.566
6.640e-01,-0.1,2.566
6.680e-01,-0.02,2.606
6.720e-01,-0.02,2.566
6.760e-01,-0.02,2.606
6.800e-01,-0.02,2.574
6.840e-01,-0.02,2.574
6.880e-01,-0.02,2.614
6.920e-01,-0.1,2.614
6.960e-01,-0.02,2.622
7.000e-01,0.06,2.622
7.040e-01,-0.02,2.622
7.080e-01,-0.02,2.662
7.120e-01,-0.02,2.646
7.160e-01,-0.02,2.646
7.200e-01,-0.1,2.654
7.240e-01,-0.1,2.662
7.280e-01,-0.1,2.694
7.320e-01,-0.02,2.686
7.360e-01,0.06,2.686
7.400e-01,-0.02,2.694
7.440e-01,-0.1,2.694
7.480e-01,-0.02,2.726
7.520e-01,-0.02,2.702
7.560e-01,-0.02,2.726
7.600e-01,-0.02,2.742
7.640e-01,-0.1,2.734
7.680e-01,0.06,2.75
7.720e-01,-0.02,2.742
7.760e-01,0.14,2.742
7.800e-01,0.14,2.726
7.840e-01,-0.02,2.758
7.880e-01,-0.1,2.766
7.920e-01,0.06,2.782
7.960e-01,-0.02,2.782
8.000e-01,-0.02,2.774
8.040e-01,-0.02,2.798
8.080e-01,-0.18,2.822
8.120e-01,-0.02,2.822
8.160e-01,-0.02,2.798
8.200e-01,-0.02,2.822
8.240e-01,-0.1,2.83
8.280e-01,-0.02,2.798
8.320e-01,-0.02,2.838
8.360e-01,-0.02,2.838
8.400e-01,-0.02,2.83
8.440e-01,-0.02,2.822
8.480e-01,-0.02,2.838
8.520e-01,-0.02,2.862
8.560e-01,-0.02,2.846
8.600e-01,-0.02,2.854
8.640e-01,-0.02,2.87
8.680e-01,-0.02,2.87
8.720e-01,-0.02,2.886
8.760e-01,0.06,2.87
8.800e-01,-0.02,2.886
8.840e-01,-0.02,2.918
8.880e-01,-0.1,2.902
8.920e-01,-0.02,2.878
8.960e-01,-0.02,2.886
9.000e-01,-0.1,2.894
9.040e-01,-0.02,2.886
9.080e-01,-0.02,2.87
9.120e-01,-0.1,2.942
9.160e-01,-0.02,2.91
9.200e-01,-0.02,2.926
9.240e-01,-0.02,2.91
9.280e-01,0.06,2.902
9.320e-01,4.54,2.918
9.360e-01,4.78,2.902
9.400e-01,4.62,2.918
9.440e-01,4.7,2.934
9.480e-01,4.62,2.918
9.520e-01,4.7,2.934
9.560e-01,4.62,2.934
9.600e-01,4.78,2.95
9.640e-01,4.7,2.942
9.680e-01,4.78,2.934
9.720e-01,4.86,2.934
9.760e-01,4.7,2.926
9.800e-01,4.62,2.942
9.840e-01,4.78,2.942
9.880e-01,4.54,2.918
9.920e-01,4.62,2.918
9.960e-01,4.78,2.95
1.000e+00,4.7,2.934
1.004e+00,4.54,2.91
1.008e+00,4.7,2.934
1.012e+00,4.54,2.934
1.016e+00,4.7,2.95
1.020e+00,4.7,2.91
1.024e+00,4.54,2.926
1.028e+00,-0.1,2.918
1.032e+00,-0.1,2.926
1.036e+00,-0.02,2.902
1.040e+00,-0.1,2.894
1.044e+00,-0.02,2.918
1.048e+00,-0.02,2.894
1.052e+00,-0.02,2.91
1.056e+00,-0.02,2.902
1.060e+00,-0.1,2.902
1.064e+00,-0.02,2.87
1.068e+00,-0.02,2.902
1.072e+00,-0.02,2.902
1.076e+00,-0.02,2.878
1.080e+00,-0.02,2.886
1.084e+00,-0.02,2.878
1.088e+00,-0.02,2.878
1.092e+00,0.06,2.918
1.096e+00,-0.02,2.902
1.100e+00,-0.02,2.846
1.104e+00,0.06,2.83
1.108e+00,-0.02,2.862
1.112e+00,-0.02,2.878
1.116e+00,0.06,2.83
1.120e+00,0.14,2.814
1.124e+00,-0.02,2.838
1.128e+00,0.06,2.846
1.132e+00,-0.02,2.822
1.136e+00,0.06,2.822
1.140e+00,-0.1,2.822
1.144e+00,-0.02,2.798
1.148e+00,-0.02,2.798
1.152e+00,0.06,2.798
1.156e+00,-0.1,2.806
1.160e+00,-0.02,2.782
1.164e+00,-0.02,2.814
1.168e+00,0.06,2.774
1.172e+00,-0.02,2.758
1.176e+00,-0.18,2.766
1.180e+00,-0.1,2.726
1.184e+00,-0.1,2.766
1.188e+00,-0.1,2.734
1.192e+00,-0.02,2.75
1.196e+00,-0.02,2.734
1.200e+00,-0.1,2.702
1.204e+00,-0.02,2.702
1.208e+00,-0.1,2.734
1.212e+00,-0.02,2.71
1.216e+00,-0.02,2.694
1.220e+00,-0.02,2.686
1.224e+00,-0.02,2.694
1.228e+00,-0.02,2.654
1.232e+00,-0.1,2.67
1.236e+00,-0.02,2.646
1.240e+00,-0.1,2.654
1.244e+00,-0.1,2.638
1.248e+00,-0.02,2.662
1.252e+00,-0.02,2.622
1.256e+00,-0.1,2.63
1.260e+00,-0.02,2.606
1.264e+00,-0.02,2.598
1.268e+00,0.06,2.598
1.272e+00,-0.02,2.614
1.276e+00,-0.02,2.574
1.280e+00,-0.02,2.598
1.284e+00,-0.02,2.566
1.288e+00,0.06,2.574
1.292e+00,-0.02,2.566
1.296e+00,-0.1,2.542
1.300e+00,-0.02,2.55
1.304e+00,-0.02,2.526
1.308e+00,-0.1,2.558
1.312e+00,0.06,2.518
1.316e+00,-0.02,2.502
1.320e+00,-0.02,2.502
1.324e+00,-0.02,2.486
1.328e+00,-0.02,2.51
1.332e+00,-0.1,2.494
1.336e+00,0.06,2.478
1.340e+00,0.06,2.494
1.344e+00,-0.1,2.462
1.348e+00,-0.02,2.446
1.352e+00,-0.1,2.462
1.356e+00,-0.1,2.438
1.360e+00,-0.1,2.43
1.364e+00,-0.02,2.462
1.368e+00,-0.02,2.446
1.372e+00,-0.02,2.414
1.376e+00,-0.02,2.39
1.380e+00,-0.1,2.398
1.384e+00,-0.02,2.422
1.388e+00,0.06,2.406
1.392e+00,-0.02,2.358
1.396e+00,-0.1,2.374
1.400e+00,-0.02,2.39
1.404e+00,-0.1,2.374
1.408e+00,-0.02,2.366
1.412e+00,-0.02,2.358
1.416e+00,-0.1,2.342
1.420e+00,-0.02,2.35
1.424e+00,-0.02,2.334
1.428e+00,-0.02,2.358
1.432e+00,-0.02,2.334
1.436e+00,0.06,2.342
1.440e+00,-0.1,2.35
1.444e+00,-0.02,2.318
1.448e+00,-0.02,2.342
1.452e+00,-0.02,2.318
1.456e+00,-0.02,2.318
1.460e+00,-0.1,2.318
1.464e+00,-0.02,2.278
1.468e+00,-0.1,2.31
1.472e+00,-0.02,2.294
1.476e+00,-0.02,2.294
1.480e+00,0.06,2.31
1.484e+00,-0.02,2.334
1.488e+00,-0.18,2.318
1.492e+00,-0.02,2.318
1.496e+00,-0.02,2.278
1.500e+00,-0.02,2.294
1.504e+00,-0.18,2.302
1.508e+00,-0.02,2.31
1.512e+00,0.06,2.302
1.516e+00,0.06,2.27
1.520e+00,-0.02,2.294
1.524e+00,-0.02,2.27
1.528e+00,-0.1,2.278
1.532e+00,-0.02,2.27
1.536e+00,-0.02,2.214
1.540e+00,-0.1,2.286
1.544e+00,-0.1,2.254
1.548e+00,-0.02,2.278
1.552e+00,-0.1,2.254
1.556e+00,-0.02,2.27
1.560e+00,-0.1,2.254
1.564e+00,-0.02,2.286
1.568e+00,-0.02,2.278
1.572e+00,-0.02,2.254
1.576e+00,-0.1,2.254
1.580e+00,-0.02,2.238
