res/logs/tek0001ALL.csv

Model,DPO3032
Firmware Version,2.16

Point Format,Y,
Horizontal Units,S,
Horizontal Scale,0.4,
Sample Interval,0.004,
Record Length,1000,
Gating,0.0% to 100.0%,0.0% to 100.0%
Probe Attenuation,1,1
Vertical Units,V,V
Vertical Offset,-0.02,2.578
Vertical Scale,2,0.5
Label,IN,OUT
TIME,CH1,CH2
-2.000e+00,-0.02,1.688
-1.996e+00,-0.1,1.628
-1.992e+00,0.06,1.668
-1.988e+00,-0.02,1.688
-1.984e+00,-0.02,1.668
-1.980e+00,-0.02,1.688
-1.976e+00,-0.02,1.708
-1.972e+00,-0.02,1.648
-1.968e+00,-0.02,1.668
-1.964e+00,-0.02,1.668
-1.960e+00,-0.02,1.708
-1.956e+00,-0.02,1.648
-1.952e+00,-0.1,1.668
-1.948e+00,-0.1,1.688
-1.944e+00,-0.02,1.648
-1.940e+00,0.06,1.708
-1.936e+00,-0.02,1.728
-1.932e+00,-0.18,1.668
-1.928e+00,-0.02,1.688
-1.924e+00,-0.1,1.708
-1.920e+00,0.06,1.648
-1.916e+00,-0.1,1.668
-1.912e+00,-0.02,1.688
-1.908e+00,0.06,1.648
-1.904e+00,-0.02,1.708
-1.900e+00,-0.02,1.708
-1.896e+00,-0.02,1.708
-1.892e+00,-0.1,1.708
-1.888e+00,0.14,1.668
-1.884e+00,-0.1,1.708
-1.880e+00,-0.02,1.668
-1.876e+00,-0.02,1.668
-1.872e+00,-0.02,1.688
-1.868e+00,-0.02,1.668
-1.864e+00,-0.1,1.688
-1.860e+00,-0.02,1.668
-1.856e+00,-0.02,1.688
-1.852e+00,-0.1,1.648
-1.848e+00,-0.02,1.688
-1.844e+00,-0.02,1.688
-1.840e+00,0.06,1.708
-1.836e+00,-0.02,1.708
-1.832e+00,0.06,1.688
-1.828e+00,-0.02,1.748
-1.824e+00,-0.02,1.748
-1.820e+00,-0.02,1.748
-1.816e+00,-0.1,1.768
-1.812e+00,-0.02,1.768
-1.808e+00,-0.1,1.748
-1.804e+00,-0.02,1.808
-1.800e+00,-0.02,1.828
-1.796e+00,-0.1,1.848
-1.792e+00,-0.02,1.908
-1.788e+00,-0.02,1.928
-1.784e+00,-0.02,1.908
-1.780e+00,0.14,1.968
-1.776e+00,-0.1,2.008
-1.772e+00,-0.02,2.008
-1.768e+00,-0.02,2.028
-1.764e+00,-0.02,2.068
-1.760e+00,-0.1,2.128
-1.756e+00,-0.02,2.148
-1.752e+00,-0.02,2.208
-1.748e+00,-0.02,2.188
-1.744e+00,-0.02,2.268
-1.740e+00,-0.02,2.248
-1.736e+00,0.06,2.328
-1.732e+00,-0.02,2.288
-1.728e+00,-0.02,2.368
-1.724e+00,-0.02,2.448
-1.720e+00,-0.02,2.428
-1.716e+00,-0.02,2.488
-1.712e+00,0.06,2.508
-1.708e+00,-0.02,2.548
-1.704e+00,-0.02,2.568
-1.700e+00,-0.02,2.588
-1.696e+00,-0.02,2.568
-1.692e+00,-0.1,2.628
-1.688e+00,0.06,2.668
-1.684e+00,-0.02,2.688
-1.680e+00,-0.02,2.668
-1.676e+00,-0.02,2.768
-1.672e+00,0.06,2.768
-1.668e+00,-0.1,2.788
-1.664e+00,-0.1,2.808
-1.660e+00,-0.02,2.808
-1.656e+00,-0.1,2.828
-1.652e+00,-0.1,2.828
-1.648e+00,-0.02,2.808
-1.644e+00,0.06,2.828
-1.640e+00,-0.02,2.848
-1.636e+00,-0.1,2.828
-1.632e+00,-0.02,2.888
-1.628e+00,-0.1,2.828
-1.624e+00,-0.02,2.808
-1.620e+00,-0.02,2.848
-1.616e+00,-0.02,2.868
-1.612e+00,-0.1,2.788
-1.608e+00,-0.02,2.808
-1.604e+00,-0.02,2.808
-1.600e+00,-0.02,2.788
-1.596e+00,-0.02,2.768
-1.592e+00,-0.1,2.728
-1.588e+00,0.06,2.768
-1.584e+00,0.06,2.708
-1.580e+00,-0.02,2.708
-1.576e+00,-0.18,2.688
-1.572e+00,0.06,2.668
-1.568e+00,-0.1,2.668
-1.564e+00,-0.02,2.648
-1.560e+00,-0.02,2.588
-1.556e+00,-0.02,2.608
-1.552e+00,-0.02,2.548
-1.548e+00,-0.02,2.528
-1.544e+00,-0.02,2.508
-1.540e+00,-0.1,2.468
-1.536e+00,-0.02,2.468
-1.532e+00,0.06,2.448
-1.528e+00,-0.02,2.408
-1.524e+00,-0.02,2.408
-1.520e+00,-0.02,2.388
-1.516e+00,-0.1,2.328
-1.512e+00,-0.02,2.348
-1.508e+00,-0.02,2.288
-1.504e+00,-0.02,2.248
-1.500e+00,-0.1,2.248
-1.496e+00,-0.02,2.228
-1.492e+00,-0.02,2.188
-1.488e+00,-0.02,2.208
-1.484e+00,-0.1,2.168
-1.480e+00,-0.02,2.188
-1.476e+00,-0.1,2.168
-1.472e+00,0.06,2.108
-1.468e+00,0.06,2.088
-1.464e+00,-0.02,2.068
-1.460e+00,-0.02,2.068
-1.456e+00,-0.02,2.048
-1.452e+00,-0.1,2.048
-1.448e+00,-0.02,2.048
-1.444e+00,-0.1,2.008
-1.440e+00,-0.02,2.048
-1.436e+00,-0.1,2.028
-1.432e+00,-0.1,2.008
-1.428e+00,-0.02,1.968
-1.424e+00,0.06,2.008
-1.420e+00,-0.02,1.988
-1.416e+00,-0.1,2.028
-1.412e+00,-0.02,1.968
-1.408e+00,-0.02,2.008
-1.404e+00,-0.02,2.008
-1.400e+00,-0.1,2.048
-1.396e+00,0.14,2.068
-1.392e+00,-0.02,2.008
-1.388e+00,-0.02,2.048
-1.384e+00,-0.02,2.068
-1.380e+00,-0.02,2.088
-1.376e+00,-0.02,2.068
-1.372e+00,-0.02,2.108
-1.368e+00,-0.02,2.088
-1.364e+00,0.14,2.148
-1.360e+00,-0.1,2.148
-1.356e+00,-0.1,2.168
-1.352e+00,0.06,2.188
-1.348e+00,-0.02,2.228
-1.344e+00,-0.02,2.228
-1.340e+00,0.06,2.288
-1.336e+00,-0.1,2.288
-1.332e+00,-0.02,2.308
-1.328e+00,-0.02,2.328
-1.324e+00,-0.02,2.348
-1.320e+00,-0.1,2.328
-1.316e+00,0.06,2.368
-1.312e+00,-0.02,2.388
-1.308e+00,-0.1,2.388
-1.304e+00,-0.1,2.408
-1.300e+00,-0.02,2.428
-1.296e+00,-0.02,2.448
-1.292e+00,0.06,2.488
-1.288e+00,-0.02,2.508
-1.284e+00,-0.02,2.488
-1.280e+00,-0.02,2.488
-1.276e+00,0.06,2.508
-1.272e+00,-0.02,2.528
-1.268e+00,0.06,2.528
-1.264e+00,-0.02,2.568
-1.260e+00,-0.02,2.568
-1.256e+00,0.06,2.568
-1.252e+00,-0.02,2.568
-1.248e+00,-0.02,2.588
-1.244e+00,0.06,2.628
-1.240e+00,-0.02,2.628
-1.236e+00,-0.02,2.608
-1.232e+00,-0.02,2.628
-1.228e+00,-0.02,2.628
-1.224e+00,-0.1,2.628
-1.220e+00,-0.1,2.588
-1.216e+00,-0.02,2.628
-1.212e+00,-0.1,2.628
-1.208e+00,-0.02,2.628
-1.204e+00,0.06,2.608
-1.200e+00,0.14,2.628
-1.196e+00,-0.02,2.608
-1.192e+00,-0.02,2.628
-1.188e+00,-0.02,2.628
-1.184e+00,-0.02,2.628
-1.180e+00,0.06,2.628
-1.176e+00,-0.02,2.628
-1.172e+00,0.06,2.628
-1.168e+00,-0.02,2.608
-1.164e+00,-0.1,2.568
-1.160e+00,-0.1,2.568
-1.156e+00,-0.1,2.568
-1.152e+00,-0.02,2.548
-1.148e+00,-0.02,2.528
-1.144e+00,-0.02,2.488
-1.140e+00,-0.1,2.528
-1.136e+00,-0.02,2.488
-1.132e+00,0.14,2.468
-1.128e+00,-0.02,2.448
-1.124e+00,-0.02,2.428
-1.120e+00,0.06,2.428
-1.116e+00,-0.18,2.468
-1.112e+00,-0.02,2.408
-1.108e+00,-0.02,2.388
-1.104e+00,-0.1,2.368
-1.100e+00,-0.02,2.368
-1.096e+00,-0.02,2.348
-1.092e+00,-0.02,2.328
-1.088e+00,-0.02,2.288
-1.084e+00,-0.02,2.308
-1.080e+00,-0.1,2.328
-1.076e+00,-0.02,2.308
-1.072e+00,-0.02,2.288
-1.068e+00,-0.02,2.248
-1.064e+00,-0.02,2.248
-1.060e+00,0.06,2.248
-1.056e+00,-0.1,2.248
-1.052e+00,-0.02,2.248
-1.048e+00,-0.02,2.248
-1.044e+00,-0.02,2.228
-1.040e+00,0.06,2.208
-1.036e+00,-0.1,2.188
-1.032e+00,-0.1,2.188
-1.028e+00,-0.02,2.188
-1.024e+00,-0.02,2.168
-1.020e+00,-0.02,2.168
-1.016e+00,-0.02,2.188
-1.012e+00,-0.02,2.168
-1.008e+00,-0.02,2.128
-1.004e+00,0.06,2.168
-1.000e-00,-0.02,2.208
-9.960e-01,-0.02,2.148
-9.920e-01,-0.02,2.168
-9.880e-01,0.06,2.168
-9.840e-01,-0.02,2.148
-9.800e-01,-0.02,2.188
-9.760e-01,-0.02,2.168
-9.720e-01,-0.1,2.208
-9.680e-01,-0.02,2.148
-9.640e-01,-0.02,2.188
-9.600e-01,-0.1,2.188
-9.560e-01,-0.02,2.248
-9.520e-01,-0.02,2.228
-9.480e-01,-0.02,2.208
-9.440e-01,0.06,2.248
-9.400e-01,-0.1,2.248
-9.360e-01,-0.02,2.288
-9.320e-01,-0.02,2.208
-9.280e-01,-0.02,2.248
-9.240e-01,-0.02,2.288
-9.200e-01,-0.1,2.288
-9.160e-01,0.06,2.328
-9.120e-01,0.06,2.308
-9.080e-01,-0.02,2.348
-9.040e-01,-0.02,2.348
-9.000e-01,-0.02,2.348
-8.960e-01,-0.02,2.328
-8.920e-01,-0.02,2.388
-8.880e-01,-0.02,2.348
-8.840e-01,-0.02,2.408
-8.800e-01,-0.02,2.368
-8.760e-01,-0.02,2.448
-8.720e-01,-0.1,2.408
-8.680e-01,-0.02,2.448
-8.640e-01,0.06,2.408
-8.600e-01,-0.1,2.448
-8.560e-01,0.06,2.448
-8.520e-01,-0.1,2.488
-8.480e-01,-0.1,2.448
-8.440e-01,-0.02,2.448
-8.400e-01,0.14,2.488
-8.360e-01,-0.02,2.528
-8.320e-01,-0.02,2.468
-8.280e-01,0.06,2.508
-8.240e-01,0.06,2.548
-8.200e-01,-0.18,2.508
-8.160e-01,-0.02,2.528
-8.120e-01,-0.02,2.528
-8.080e-01,-0.02,2.528
-8.040e-01,-0.02,2.568
-8.000e-01,-0.02,2.548
-7.960e-01,-0.1,2.548
-7.920e-01,-0.02,2.548
-7.880e-01,-0.02,2.548
-7.840e-01,0.06,2.508
-7.800e-01,-0.1,2.548
-7.760e-01,-0.02,2.528
-7.720e-01,-0.02,2.528
-7.680e-01,-0.1,2.488
-7.640e-01,-0.1,2.548
-7.600e-01,-0.02,2.488
-7.560e-01,-0.02,2.488
-7.520e-01,-0.02,2.508
-7.480e-01,-0.1,2.488
-7.440e-01,-0.02,2.488
-7.400e-01,-0.18,2.508
-7.360e-01,-0.02,2.488
-7.320e-01,-0.02,2.488
-7.280e-01,-0.02,2.428
-7.240e-01,-0.02,2.468
-7.200e-01,-0.02,2.428
-7.160e-01,-0.02,2.468
-7.120e-01,-0.02,2.408
-7.080e-01,-0.1,2.428
-7.040e-01,-0.02,2.468
-7.000e-01,-0.02,2.408
-6.960e-01,0.06,2.428
-6.920e-01,-0.1,2.388
-6.880e-01,-0.1,2.408
-6.840e-01,-0.02,2.428
-6.800e-01,-0.02,2.368
-6.760e-01,-0.02,2.348
-6.720e-01,-0.02,2.368
-6.680e-01,-0.02,2.328
-6.640e-01,-0.02,2.348
-6.600e-01,-0.18,2.328
-6.560e-01,0.06,2.328
-6.520e-01,-0.18,2.308
-6.480e-01,-0.02,2.288
-6.440e-01,-0.02,2.328
-6.400e-01,-0.1,2.348
-6.360e-01,-0.02,2.308
-6.320e-01,-0.02,2.308
-6.280e-01,-0.02,2.308
-6.240e-01,-0.02,2.248
-6.200e-01,-0.02,2.248
-6.160e-01,-0.1,2.288
-6.120e-01,-0.02,2.308
-6.080e-01,-0.1,2.248
-6.040e-01,-0.1,2.268
-6.000e-01,-0.02,2.248
-5.960e-01,-0.02,2.228
-5.920e-01,-0.02,2.248
-5.880e-01,-0.02,2.288
-5.840e-01,-0.1,2.248
-5.800e-01,-0.1,2.288
-5.760e-01,-0.02,2.268
-5.720e-01,-0.1,2.288
-5.680e-01,-0.02,2.268
-5.640e-01,-0.02,2.288
-5.600e-01,0.06,2.268
-5.560e-01,-0.02,2.248
-5.520e-01,-0.02,2.288
-5.480e-01,-0.02,2.308
-5.440e-01,-0.18,2.288
-5.400e-01,-0.1,2.308
-5.360e-01,-0.02,2.288
-5.320e-01,-0.02,2.308
-5.280e-01,-0.02,2.328
-5.240e-01,-0.02,2.308
-5.200e-01,-0.1,2.288
-5.160e-01,-0.18,2.328
-5.120e-01,0.06,2.328
-5.080e-01,0.06,2.308
-5.040e-01,-0.1,2.328
-5.000e-01,-0.02,2.308
-4.960e-01,-0.02,2.328
-4.920e-01,-0.1,2.328
-4.880e-01,0.14,2.348
-4.840e-01,-0.02,2.368
-4.800e-01,-0.02,2.368
-4.760e-01,-0.02,2.368
-4.720e-01,-0.02,2.348
-4.680e-01,-0.02,2.368
-4.640e-01,-0.02,2.368
-4.600e-01,-0.02,2.388
-4.560e-01,0.06,2.388
-4.520e-01,-0.02,2.408
-4.480e-01,-0.02,2.408
-4.440e-01,-0.02,2.388
-4.400e-01,-0.02,2.408
-4.360e-01,-0.02,2.408
-4.320e-01,-0.1,2.428
-4.280e-01,-0.02,2.428
-4.240e-01,0.06,2.428
-4.200e-01,-0.02,2.428
-4.160e-01,-0.02,2.448
-4.120e-01,-0.02,2.428
-4.080e-01,-0.1,2.468
-4.040e-01,-0.1,2.428
-4.000e-01,-0.18,2.428
-3.960e-01,-0.02,2.488
-3.920e-01,-0.02,2.468
-3.880e-01,-0.02,2.448
-3.840e-01,-0.02,2.428
-3.800e-01,-0.02,2.488
-3.760e-01,-0.02,2.448
-3.720e-01,-0.02,2.468
-3.680e-01,-0.1,2.488
-3.640e-01,-0.02,2.468
-3.600e-01,-0.02,2.448
-3.560e-01,-0.02,2.468
-3.520e-01,-0.02,2.488
-3.480e-01,0.06,2.428
-3.440e-01,-0.02,2.428
-3.400e-01,-0.02,2.408
-3.360e-01,-0.02,2.428
-3.320e-01,-0.02,2.448
-3.280e-01,-0.02,2.428
-3.240e-01,-0.1,2.428
-3.200e-01,-0.02,2.428
-3.160e-01,0.06,2.448
-3.120e-01,-0.02,2.428
-3.080e-01,-0.02,2.428
-3.040e-01,0.06,2.408
-3.000e-01,-0.02,2.388
-2.960e-01,-0.02,2.408
-2.920e-01,-0.02,2.448
-2.880e-01,-0.02,2.388
-2.840e-01,-0.1,2.348
-2.800e-01,-0.02,2.368
-2.760e-01,-0.02,2.388
-2.720e-01,-0.02,2.348
-2.680e-01,-0.1,2.368
-2.640e-01,-0.02,2.368
-2.600e-01,-0.02,2.388
-2.560e-01,-0.02,2.328
-2.520e-01,-0.02,2.328
-2.480e-01,-0.02,2.388
-2.440e-01,-0.02,2.348
-2.400e-01,-0.1,2.348
-2.360e-01,-0.02,2.348
-2.320e-01,-0.02,2.348
-2.280e-01,-0.02,2.328
-2.240e-01,-0.02,2.328
-2.200e-01,-0.02,2.288
-2.160e-01,-0.02,2.308
-2.120e-01,-0.02,2.348
-2.080e-01,-0.02,2.328
-2.040e-01,-0.02,2.348
-2.000e-01,-0.02,2.328
-1.960e-01,-0.1,2.328
-1.920e-01,-0.02,2.328
-1.880e-01,-0.1,2.328
-1.840e-01,-0.02,2.348
-1.800e-01,-0.02,2.308
-1.760e-01,-0.02,2.328
-1.720e-01,-0.02,2.308
-1.680e-01,-0.02,2.328
-1.640e-01,-0.02,2.328
-1.600e-01,-0.1,2.308
-1.560e-01,0.06,2.308
-1.520e-01,-0.02,2.308
-1.480e-01,-0.02,2.328
-1.440e-01,-0.02,2.288
-1.400e-01,-0.1,2.308
-1.360e-01,0.06,2.308
-1.320e-01,-0.02,2.288
-1.280e-01,-0.02,2.288
-1.240e-01,0.06,2.308
-1.200e-01,-0.02,2.308
-1.160e-01,-0.1,2.348
-1.120e-01,-0.1,2.308
-1.080e-01,-0.02,2.328
-1.040e-01,-0.02,2.328
-1.000e-01,-0.02,2.368
-9.600e-02,-0.02,2.328
-9.200e-02,-0.02,2.328
-8.800e-02,-0.02,2.348
-8.400e-02,-0.1,2.348
-8.000e-02,-0.02,2.308
-7.600e-02,-0.02,2.388
-7.200e-02,-0.02,2.328
-6.800e-02,-0.02,2.368
-6.400e-02,-0.1,2.348
-6.000e-02,-0.02,2.368
-5.600e-02,-0.02,2.408
-5.200e-02,-0.1,2.388
-4.800e-02,-0.02,2.328
-4.400e-02,-0.1,2.388
-4.000e-02,-0.02,2.348
-3.600e-02,-0.02,2.368
-3.200e-02,-0.02,2.388
-2.800e-02,-0.02,2.368
-2.400e-02,-0.02,2.348
-2.000e-02,-0.02,2.388
-1.600e-02,-0.02,2.368
-1.200e-02,-0.02,2.408
-8.000e-03,-0.02,2.388
-4.000e-03,-0.1,2.428
1.749e-15,-0.02,2.428
4.000e-03,-0.1,2.388
8.000e-03,-0.1,2.408
1.200e-02,-0.1,2.408
1.600e-02,-0.02,2.408
2.000e-02,-0.02,2.428
2.400e-02,-0.02,2.448
2.800e-02,-0.1,2.428
3.200e-02,-0.02,2.408
3.600e-02,-0.02,2.448
4.000e-02,0.06,2.448
4.400e-02,-0.02,2.448
4.800e-02,-0.02,2.408
5.200e-02,0.06,2.428
5.600e-02,-0.02,2.428
6.000e-02,-0.02,2.408
6.400e-02,-0.02,2.448
6.800e-02,-0.18,2.428
7.200e-02,-0.02,2.368
7.600e-02,0.06,2.388
8.000e-02,-0.18,2.428
8.400e-02,-0.02,2.408
8.800e-02,-0.02,2.408
9.200e-02,-0.02,2.408
9.600e-02,-0.1,2.408
1.000e-01,-0.18,2.408
1.040e-01,-0.02,2.408
1.080e-01,-0.02,2.428
1.120e-01,-0.02,2.388
1.160e-01,-0.02,2.368
1.200e-01,-0.02,2.388
1.240e-01,-0.1,2.368
1.280e-01,-0.02,2.388
1.320e-01,-0.02,2.368
1.360e-01,-0.02,2.368
1.400e-01,-0.02,2.328
1.440e-01,-0.02,2.368
1.480e-01,-0.02,2.368
1.520e-01,0.06,2.348
1.560e-01,-0.02,2.368
1.600e-01,0.14,2.348
1.640e-01,-0.02,2.348
1.680e-01,-0.18,2.368
1.720e-01,-0.02,2.348
1.760e-01,-0.1,2.368
1.800e-01,-0.1,2.388
1.840e-01,-0.02,2.368
1.880e-01,-0.02,2.348
1.920e-01,-0.02,2.368
1.960e-01,-0.02,2.368
2.000e-01,-0.02,2.328
2.040e-01,0.14,2.328
2.080e-01,-0.02,2.348
2.120e-01,-0.02,2.288
2.160e-01,0.06,2.328
2.200e-01,-0.02,2.328
2.240e-01,0.06,2.348
2.280e-01,-0.02,2.308
2.320e-01,0.06,2.328
2.360e-01,-0.02,2.328
2.400e-01,-0.02,2.328
2.440e-01,-0.02,2.348
2.480e-01,-0.02,2.348
2.520e-01,0.06,2.328
2.560e-01,-0.02,2.368
2.600e-01,-0.02,2.368
2.640e-01,-0.02,2.348
2.680e-01,0.06,2.328
2.720e-01,-0.02,2.308
2.760e-01,-0.1,2.328
2.800e-01,-0.02,2.308
2.840e-01,-0.18,2.348
2.880e-01,-0.02,2.308
2.920e-01,-0.02,2.308
2.960e-01,-0.02,2.308
3.000e-01,-0.02,2.348
3.040e-01,-0.02,2.328
3.080e-01,-0.1,2.348
3.120e-01,-0.02,2.348
3.160e-01,-0.02,2.348
3.200e-01,-0.02,2.348
3.240e-01,-0.1,2.328
3.280e-01,-0.02,2.348
3.320e-01,-0.02,2.388
3.360e-01,-0.02,2.348
3.400e-01,-0.02,2.388
3.440e-01,-0.02,2.348
3.480e-01,-0.02,2.388
3.520e-01,-0.02,2.368
3.560e-01,-0.1,2.368
3.600e-01,0.06,2.348
3.640e-01,-0.02,2.388
3.680e-01,0.06,2.368
3.720e-01,-0.02,2.348
3.760e-01,-0.02,2.348
3.800e-01,-0.02,2.428
3.840e-01,-0.02,2.368
3.880e-01,0.06,2.348
3.920e-01,-0.02,2.368
3.960e-01,-0.02,2.388
4.000e-01,-0.02,2.368
4.040e-01,-0.02,2.348
4.080e-01,-0.02,2.428
4.120e-01,-0.1,2.408
4.160e-01,-0.02,2.368
4.200e-01,-0.02,2.408
4.240e-01,-0.02,2.388
4.280e-01,0.06,2.408
4.320e-01,-0.02,2.408
4.360e-01,-0.02,2.408
4.400e-01,-0.02,2.368
4.440e-01,-0.02,2.388
4.480e-01,-0.1,2.388
4.520e-01,-0.1,2.408
4.560e-01,-0.02,2.408
4.600e-01,-0.02,2.368
4.640e-01,-0.02,2.408
4.680e-01,-0.02,2.388
4.720e-01,-0.02,2.428
4.760e-01,-0.02,2.408
4.800e-01,-0.02,2.408
4.840e-01,-0.02,2.388
4.880e-01,-0.02,2.388
4.920e-01,-0.02,2.368
4.960e-01,-0.02,2.428
5.000e-01,-0.02,2.388
5.040e-01,-0.02,2.428
5.080e-01,0.06,2.348
5.120e-01,-0.02,2.348
5.160e-01,-0.02,2.408
5.200e-01,-0.02,2.408
5.240e-01,-0.1,2.428
5.280e-01,0.06,2.368
5.320e-01,-0.1,2.388
5.360e-01,-0.02,2.348
5.400e-01,0.06,2.408
5.440e-01,-0.02,2.388
5.480e-01,-0.02,2.408
5.520e-01,-0.02,2.368
5.560e-01,-0.02,2.368
5.600e-01,-0.02,2.328
5.640e-01,-0.02,2.348
5.680e-01,-0.02,2.388
5.720e-01,0.06,2.368
5.760e-01,-0.02,2.348
5.800e-01,-0.02,2.388
5.840e-01,-0.02,2.348
5.880e-01,-0.02,2.328
5.920e-01,-0.02,2.388
5.960e-01,-0.02,2.368
6.000e-01,-0.02,2.368
6.040e-01,-0.02,2.368
6.080e-01,-0.02,2.368
6.120e-01,-0.02,2.328
6.160e-01,-0.02,2.368
6.200e-01,-0.18,2.328
6.240e-01,-0.02,2.368
6.280e-01,-0.02,2.408
6.320e-01,-0.02,2.368
6.360e-01,-0.02,2.368
6.400e-01,0.06,2.368
6.440e-01,0.06,2.348
6.480e-01,0.06,2.368
6.520e-01,-0.02,2.368
6.560e-01,-0.02,2.328
6.600e-01,-0.02,2.348
6.640e-01,-0.02,2.368
6.680e-01,0.14,2.308
6.720e-01,-0.02,2.348
6.760e-01,-0.02,2.388
6.800e-01,-0.02,2.368
6.840e-01,-0.02,2.368
6.880e-01,-0.02,2.328
6.920e-01,-0.02,2.348
6.960e-01,-0.02,2.388
7.000e-01,-0.02,2.328
7.040e-01,-0.02,2.368
7.080e-01,-0.02,2.388
7.120e-01,-0.02,2.368
7.160e-01,-0.02,2.368
7.200e-01,0.06,2.348
7.240e-01,-0.1,2.368
7.280e-01,-0.02,2.348
7.320e-01,-0.02,2.348
7.360e-01,-0.02,2.388
7.400e-01,0.06,2.388
7.440e-01,0.06,2.368
7.480e-01,0.06,2.348
7.520e-01,0.06,2.408
7.560e-01,-0.1,2.408
7.600e-01,-0.1,2.328
7.640e-01,-0.1,2.388
7.680e-01,-0.1,2.408
7.720e-01,-0.1,2.388
7.760e-01,-0.1,2.368
7.800e-01,-0.02,2.408
7.840e-01,-0.1,2.388
7.880e-01,-0.02,2.348
7.920e-01,-0.02,2.368
7.960e-01,-0.1,2.388
8.000e-01,-0.02,2.348
8.040e-01,-0.02,2.368
8.080e-01,-0.1,2.408
8.120e-01,-0.02,2.368
8.160e-01,-0.1,2.368
8.200e-01,-0.1,2.388
8.240e-01,-0.02,2.368
8.280e-01,0.06,2.388
8.320e-01,-0.02,2.368
8.360e-01,-0.02,2.368
8.400e-01,-0.02,2.408
8.440e-01,-0.02,2.368
8.480e-01,-0.02,2.368
8.520e-01,-0.02,2.388
8.560e-01,-0.02,2.388
8.600e-01,-0.02,2.368
8.640e-01,-0.02,2.368
8.680e-01,-0.02,2.348
8.720e-01,-0.02,2.428
8.760e-01,0.14,2.348
8.800e-01,-0.02,2.368
8.840e-01,-0.02,2.368
8.880e-01,-0.1,2.408
8.920e-01,-0.02,2.388
8.960e-01,-0.02,2.368
9.000e-01,-0.02,2.388
9.040e-01,-0.1,2.408
9.080e-01,-0.02,2.408
9.120e-01,-0.02,2.368
9.160e-01,0.06,2.368
9.200e-01,-0.02,2.388
9.240e-01,-0.02,2.368
9.280e-01,-0.02,2.368
9.320e-01,-0.02,2.368
9.360e-01,-0.1,2.328
9.400e-01,0.06,2.368
9.440e-01,-0.02,2.388
9.480e-01,-0.02,2.368
9.520e-01,-0.02,2.388
9.560e-01,0.06,2.388
9.600e-01,-0.1,2.408
9.640e-01,-0.02,2.388
9.680e-01,-0.1,2.388
9.720e-01,0.06,2.348
9.760e-01,-0.1,2.388
9.800e-01,-0.02,2.388
9.840e-01,-0.02,2.368
9.880e-01,0.06,2.408
9.920e-01,-0.02,2.368
9.960e-01,-0.02,2.348
1.000e+00,-0.02,2.368
1.004e+00,0.06,2.368
1.008e+00,-0.02,2.348
1.012e+00,0.06,2.368
1.016e+00,-0.1,2.328
1.020e+00,-0.02,2.408
1.024e+00,-0.02,2.388
1.028e+00,-0.02,2.348
1.032e+00,-0.1,2.368
1.036e+00,-0.02,2.348
1.040e+00,-0.1,2.408
1.044e+00,0.06,2.388
1.048e+00,-0.02,2.348
1.052e+00,-0.02,2.348
1.056e+00,-0.02,2.388
1.060e+00,-0.02,2.368
1.064e+00,-0.02,2.368
1.068e+00,-0.02,2.388
1.072e+00,-0.02,2.368
1.076e+00,-0.18,2.388
1.080e+00,-0.02,2.348
1.084e+00,-0.02,2.348
1.088e+00,-0.02,2.348
1.092e+00,-0.02,2.368
1.096e+00,-0.02,2.368
1.100e+00,-0.02,2.388
1.104e+00,-0.02,2.388
1.108e+00,0.06,2.408
1.112e+00,-0.02,2.348
1.116e+00,-0.02,2.368
1.120e+00,-0.02,2.368
1.124e+00,-0.02,2.348
1.128e+00,-0.02,2.348
1.132e+00,-0.02,2.388
1.136e+00,-0.02,2.348
1.140e+00,0.06,2.348
1.144e+00,-0.02,2.368
1.148e+00,0.06,2.328
1.152e+00,-0.02,2.348
1.156e+00,0.06,2.368
1.160e+00,-0.1,2.388
1.164e+00,0.06,2.368
1.168e+00,0.06,2.368
1.172e+00,-0.02,2.388
1.176e+00,-0.02,2.368
1.180e+00,-0.02,2.348
1.184e+00,-0.02,2.368
1.188e+00,-0.02,2.388
1.192e+00,-0.02,2.368
1.196e+00,-0.02,2.368
1.200e+00,-0.02,2.348
1.204e+00,-0.02,2.348
1.208e+00,-0.1,2.368
1.212e+00,-0.02,2.388
1.216e+00,-0.02,2.368
1.220e+00,-0.02,2.368
1.224e+00,-0.02,2.348
1.228e+00,-0.02,2.388
1.232e+00,-0.02,2.408
1.236e+00,-0.02,2.348
1.240e+00,-0.02,2.388
1.244e+00,-0.1,2.368
1.248e+00,-0.02,2.388
1.252e+00,-0.02,2.388
1.256e+00,-0.02,2.348
1.260e+00,-0.02,2.388
1.264e+00,-0.02,2.328
1.268e+00,-0.18,2.388
1.272e+00,-0.02,2.368
1.276e+00,-0.02,2.408
1.280e+00,-0.02,2.408
1.284e+00,-0.1,2.368
1.288e+00,-0.02,2.368
1.292e+00,-0.02,2.348
1.296e+00,-0.02,2.388
1.300e+00,-0.02,2.368
1.304e+00,0.06,2.328
1.308e+00,0.06,2.348
1.312e+00,0.06,2.368
1.316e+00,-0.1,2.348
1.320e+00,-0.02,2.368
1.324e+00,-0.1,2.368
1.328e+00,-0.02,2.388
1.332e+00,-0.02,2.388
1.336e+00,-0.1,2.388
1.340e+00,-0.1,2.368
1.344e+00,-0.02,2.368
1.348e+00,0.06,2.388
1.352e+00,-0.02,2.368
1.356e+00,-0.18,2.368
1.360e+00,-0.1,2.368
1.364e+00,-0.02,2.348
1.368e+00,-0.02,2.388
1.372e+00,-0.1,2.388
1.376e+00,-0.02,2.328
1.380e+00,-0.02,2.388
1.384e+00,-0.02,2.408
1.388e+00,-0.02,2.388
1.392e+00,0.06,2.368
1.396e+00,-0.02,2.368
1.400e+00,-0.02,2.388
1.404e+00,-0.1,2.348
1.408e+00,-0.1,2.348
1.412e+00,-0.1,2.388
1.416e+00,-0.1,2.368
1.420e+00,-0.02,2.388
1.424e+00,-0.02,2.348
1.428e+00,0.06,2.368
1.432e+00,-0.1,2.388
1.436e+00,-0.02,2.368
1.440e+00,-0.02,2.388
1.444e+00,-0.02,2.368
1.448e+00,-0.02,2.408
1.452e+00,-0.1,2.368
1.456e+00,0.06,2.348
1.460e+00,-0.02,2.408
1.464e+00,-0.1,2.328
1.468e+00,-0.1,2.368
1.472e+00,-0.02,2.348
1.476e+00,-0.02,2.368
1.480e+00,-0.02,2.388
1.484e+00,-0.02,2.348
1.488e+00,-0.26,2.328
1.492e+00,-0.02,2.368
1.496e+00,0.14,2.388
1.500e+00,-0.1,2.388
1.504e+00,-0.18,2.388
1.508e+00,-0.02,2.348
1.512e+00,-0.02,2.368
1.516e+00,0.06,2.388
1.520e+00,-0.02,2.368
1.524e+00,0.06,2.388
1.528e+00,0.06,2.348
1.532e+00,-0.02,2.408
1.536e+00,-0.02,2.388
